{
    "titulo": "Fonte de informação sobre Tecnologia e Jogos, com notícias e análises de eletrônicos de consumo, gadgets, hardwares para computador e games. Um dos maiores fóruns do Brasil.",
    "link": "http://adrenaline.uol.com.br/2019/05/01/58894/be-quiet-apresenta-dark-rock-slim-cooler-compacto-com-baixa-emissao-de-ruido/",
    "thumb": "//adrenaline.uol.com.br/admin/files/sysmidia/2y6Cd50Az18AZ3a73xAAa5dDdY4Ya9/dark-rock-slim_chamada.jpg",
    "listContent": [
        {
            "tipo": "texto",
            "conteudo": "A fabricante alemã Be quiet! anunciou sua nova solução de resfriamento a ar para processadores, o Dark Rock Slim. O cooler já havia sido aparecido na CES, mas agora a empresa revelou mais detalhes sobre seu desempenho e, principalmente, do seu maior atrativo: a baixa emissão de ruído em seu tamanho compacto."
        },
        {
            "tipo": "texto",
            "conteudo": "Site - Be Quiet!"
        },
        {
            "tipo": "texto",
            "conteudo": "O Dark Rock Slim segue o mesmo design dos outros sistemas de refrigeração da Be Quiet! como os da série Dark Rock 4, mas em um modelo bem mais compacto para manter o alto desempenho sem interferir nos módulos de memória RAM do computador. Graças às suas dimensões 74 x 137 x 161 e suporte para os principais soquetes da Intel e AMD, o novo cooler é capaz de atender as necessidades de diferentes tipos de usuários, incluindo aqueles que não ostentam muito espaço. "
        },
        {
            "tipo": "texto",
            "conteudo": "O novo cooler acompanha uma versão otimizada da fan PWM Silent Wings 3 de 120mm que tem uma baixa vibração e, consequentemente, diminui o ruído. Por falar nisso, o Dark Slim consegue se sair muito bem nesse quesito, apresentando de 11.5 dBA em metade da sua velocidade e 23.7 dBA em 100% (rpm). Os quatro tubos de cobre para transferência de calor também estão presentes neste modelo, assim como alguns pequenos furos para auxiliar no fluxo de ar. "
        },
        {
            "tipo": "imagem",
            "conteudo": "//adrenaline.uol.com.br/admin/files/sysmidia/bBzWxdAYwDCc6Bab69z2ZWzxcbCx15/dark-rock-slim_tex1.jpg"
        },
        {
            "tipo": "imagem",
            "conteudo": "//adrenaline.uol.com.br/admin/files/sysmidia/6az0Y33wa84Z42C7cxd73Ac7Zy84y3/dark-rock-slim_tex5.jpg"
        },
        {
            "tipo": "texto",
            "conteudo": "Deepcool apresenta watercooler de CPU Gamer Storm Castle 240 RGB V2"
        },
        {
            "tipo": "texto",
            "conteudo": "O novo sistema da Be Quiet! estará disponível a partir do dia 14 de maio por US$ 59,90. Confira mais detalhes do Dark Rock Slim em seu site. "
        }
    ]
}