[
    {
        "titulo": "\nXbox Live, de 19 a 25 de fevereiro\n",
        "link": "http://www.promocaogames.com.br/2019/02/xbox-live-de-19-25-de-fevereiro.html",
        "data": "2019-02-18T21:58:00-03:00",
        "autor": "\nMauro Ribeiro\n",
        "comentarios": 18,
        "conteudoTextual": "\ntable#t1 {font-family: arial, sans-serif;border-collapse: collapse;width: 100%;}table#t1 td, th {border: 1px solid #dddddd;text-align: left;padding: 4px;}background-color: rgba(255, 255, 255, 0.8);}table#t1 tr:nth-child(odd) {background-color: rgba(255, 255, 255, 0.8);}table#t1 thead {background-color: rgba(150, 150, 150, 1);}table#t1 tr:nth-child(even) {background-color: rgba(255, 255, 255, 0.8);}table#t2 {font-family: arial, sans-serif;border-collapse: collapse;width: 100%;}table#t2 td, th {border: 1px solid #dddddd;text-align: left;padding: 4px;}table#t2 tr:nth-child(even) {background-color: #dddddd;}table#t2 tr:nth-child(odd) {background-color: #ffffff;}\n\nif(typeof sorttable == \"undefined\"){\ndocument.write('<scr'+'ipt src=\"https://kryogenix.org/code/browser/sorttable/sorttable.js\"></scr'+'ipt>');\n}\n\n\n\n\nJogos abaixo estão em promoção esta semana.\n\nAlém desses jogos, também está acontecendo a promoção Anime Month, e também está em promoção a versão simples de Far Cry 5 por um preço excelente.\n\nÚltima atualização: 19/02 - 21:18\n\nPara Xbox 360:\n\n\nNomeBRUSA%ObsTipo\n\nAlien RageR$ 6,00$ 2,9980%G\nBully Scholarship Ed.R$ 19,60$ 5,9960%G,R\nDogfight 1942-$ 2,4975%G\nDogfight 1942: Fire over Africa-$ 1,4950%GDLC\nDogfight 1942: Russia under Siege-$ 1,4950%GDLC\nEnemy Front-$ 5,9985%G\nEnemy Front: Multiplayer Expansion Pack-$ 1,9960%G\nGTA VR$ 36,00$ 9,9950%G\nL.A. NoireR$ 38,70$ 8,9970%G\nLEGO BatmanR$ 11,70$ 5,9970%R\nLEGO Batman 2R$ 11,70$ 5,9960%R\nLEGO BATMAN 3: BEYOND GOTHAMR$ 53,70$ 5,9970%\nLEGO Harry Potter-$ 5,9970%\nLEGO Harry Potter: Years 5-7R$ 11,70$ 5,9970%\nLEGO Jurassic WorldR$ 53,70$ 5,9970%\nLEGO Marvel Super HeroesR$ 53,70$ 5,9970%\nLEGO Star Wars: The Force AwakensR$ 39,00$ 5,9970%\nMax Payne 3R$ 49,50$ 9,9950%G\nRotastic-$ 0,9980%G\nSniper Ghost Warrior - Second Strike-$ 2,7960%GDLC\nSniper Ghost Warrior 2R$ 14,85$ 5,2485%G\nSniper Ghost Warrior 2 - GoldR$ 9,00$ 4,4970%GDLC\nSniper Ghost Warrior 2: Siberian StrikeR$ 6,00$ 2,9970%GDLC\nSniper: Ghost WarriorR$ 4,35$ 2,2485%G\nSniper: Ghost Warrior - Map PackR$ 6,00$ 2,9970%GDLC\nThe Lego Movie VideogameR$ 53,70$ 5,9970%\n\n\n\nPara Xbox One:\n\n\nNomeBRUSA%ObsTipo\n\nAER - Memories of OldR$ 21,75$ 11,2425%G\nAlekhine's GunR$ 32,70$ 9,0070%\nBeast QuestR$ 59,70$ 12,0070%\nBen 10-$ 9,0070%G\nChaos on DeponiaR$ 19,50$ 9,9950%G\nCrayola ScootR$ 23,70$ 12,0070%G,X\nCrossout – Frostburn PackR$ 39,50$ 20,0050%DLC\nDead AllianceR$ 44,70$ 12,0070%\nDead Alliance: Multiplayer EditionR$ 37,50$ 7,5070%\nDestiny 2: RenegadosR$ 65,00$ 20,0050%G,X\nDestiny 2: Renegados + Passe AnualR$ 171,50$ 48,9930%G,Xjogo + DLC\nDestiny 2: Renegados - Coleção LendáriaR$ 115,00$ 30,0050%G,Xjogo + DLC\nDestiny 2: Renegados - Edição Digital DeluxeR$ 175,50$ 51,9935%G,Xjogo + DLC\nDestiny 2: Renegados – Coleção CompletaR$ 179,40$ 59,9940%G,Xjogo + DLC\nDoodle God: Crime CityR$ 16,86$ 4,5435%G,X\nDovetail Games Euro FishingR$ 10,80$ 5,5570%G\nEuro Fishing: BergseeR$ 8,40$ 4,4060%DLC\nEuro Fishing: Castle EditionR$ 19,60$ 10,0060%X\nEuro Fishing: Foundry DockR$ 8,40$ 4,4060%DLC\nEuro Fishing: Hunters LakeR$ 8,40$ 4,4060%DLC\nEuro Fishing: Le Lac d'OrR$ 8,40$ 4,4060%DLC\nEuro Fishing: LiliesR$ 8,40$ 4,4060%DLC\nEuro Fishing: Manor Farm LakeR$ 8,40$ 4,4060%DLC\nEuro Fishing: Season PassR$ 35,50$ 18,0050%DLC\nEuro Fishing: The MoatR$ 8,40$ 4,4060%DLC\nEuro Fishing: Ultimate EditionR$ 60,20$ 30,4430%G,Xjogo + DLC\nEuro Fishing: WaldseeR$ 8,40$ 4,4060%DLC\nExtinctionR$ 59,70$ 18,0070%\nExtinction: Deluxe EditionR$ 68,70$ 21,0070%jogo + DLC\nFar Cry 5 + Far Cry New Dawn Deluxe EditionR$ 210,00$ 59,9940%Xjogo + DLC\nFar Cry 5 Gold Edition + Far Cry New Dawn Deluxe EditionR$ 240,00$ 77,9940%Xjogo + DLC\nFarming Simulator 17 - Premium EditionR$ 68,70$ 18,0070%G,Xjogo + DLC\nHuman Fall FlatR$ 11,60$ 5,9960%\nINDIE BUNDLE: Shiness and Seasons after FallR$ 29,75$ 10,0075%G\nInfinite Air with Mark McMorrisR$ 17,70$ 9,0070%\nLEGO Batman 3: Beyond GothamR$ 49,50$ 10,0050%\nLEGO Batman 3: Beyond Gotham Deluxe EditionR$ 64,50$ 17,5050%jogo + DLC\nLEGO CITY UndercoverR$ 60,00$ 15,0050%\nLEGO DC Super-VillainsR$ 115,00$ 30,0050%\nLEGO DC Super-Villains Deluxe EditionR$ 168,00$ 44,9940%Xjogo + DLC\nLEGO Harry Potter CollectionR$ 90,00$ 23,9940%X\nLEGO Jurassic WorldR$ 90,00$ 10,0050%\nLEGO Marvel Super HeroesR$ 99,50$ 10,0050%\nLEGO Marvel Super Heroes 2R$ 39,50$ 10,0050%X\nLego Marvel Super Heroes 2 Deluxe EditionR$ 64,50$ 17,5050%Xjogo + DLC\nLEGO Marvel Super Heroes BundleR$ 125,00$ 30,0050%X\nLEGO Marvel Super Heroes Deluxe BundleR$ 150,00$ 37,5050%Xjogo + DLC\nLEGO Marvel’s Avengers Deluxe EditionR$ 100,00$ 15,0050%jogo + DLC\nLEGO Movies Game BundleR$ 100,00$ 25,0050%\nLego Star Wars Despertar da ForçaR$ 50,00$ 10,0050%\nLego Star Wars Despertar da Força Deluxe EditionR$ 65,00$ 15,0050%jogo + DLC\nLego VingadoresR$ 90,00$ 10,0050%\nLEGO WorldsR$ 65,00$ 15,0050%\nLego: The IncrediblesR$ 100,00$ 30,0050%\nLichdom: BattlemageR$ 32,70$ 9,0070%\nLords of the FallenR$ 11,85$ 3,0085%G\nLords of the Fallen Digital Complete EditionR$ 14,85$ 4,5085%Gjogo + DLC\nLords of the Fallen: Complete Edition BundleR$ 5,60$ 2,9080%DLC\nMadden NFL 19R$ 59,75$ 15,0075%G,X\nMadden NFL 19: Hall of Fame EditionR$ 79,75$ 20,0075%G,Xjogo + DLC\nNightmare BoyR$ 12,50$ 6,4950%G\nOutcast - Second ContactR$ 53,60$ 16,0060%G\nOverride: Mech City Brawl – Season PassR$ 18,85$ 9,7435%DLC\nOxenfreeR$ 15,60$ 7,9960%G\nRed Dead Redemption 2R$ 166,83$ 40,1933%G,X\nRed Dead Redemption 2: Edição EspecialR$ 200,33$ 53,5933%G,Xjogo + DLC\nRed Dead Redemption 2: Ultimate EditionR$ 233,83$ 66,9933%G,Xjogo + DLC\nShalnor Legends: Sacred LandsR$ 28,46$ 7,4925%G\nSniper Ghost Warrior 3 Season Pass EditionR$ 45,87$ 13,2067%Gjogo + DLC\nState of Anarchy: Master of MayhemR$ 11,06$ 5,5930%G,X\nStick it To The ManR$ 3,16$ 1,5980%G\nThe Golf Club 2R$ 38,70$ 9,0070%\nThe LEGO Movie VideogameR$ 119,40$ 11,9940%\nThe LEGO NINJAGO Movie Video GameR$ 90,00$ 29,9940%\nThe Surge - Augmented EditionR$ 57,50$ 15,0075%G,Xjogo + DLC\nThimbleweed ParkR$ 37,47$ 9,9950%G,A\nThronebreaker: The Witcher TalesR$ 82,50$ 22,4925%G\nTT Isle of ManR$ 139,20$ 43,1940%G,X\nWarhammer Bundle: Mordheim and Blood Bowl 2R$ 37,25$ 12,5075%G\n\n\n\nG = desconto para assinantes Gold\nR = retrocompatível\nA = XBOX Play Anywhere\nX = Otimizado para Xbox One X\n\n\n",
        "conteudos": [
            {
                "tipo": "tabela",
                "linhas": [
                    {
                        "tipo": "linha de tabela",
                        "url": "https://afflnk.microsoft.com/c/1250666/439011/7803?u=https%3A%2F%2Fmarketplace.xbox.com%2Fpt-br%2FProduct%2FAlien-Rage%2F66acd000-77fe-1000-9115-d80258410b22%3Fnosplash%3D1%26DownloadType%3DGame%23LiveZone",
                        "titulo": "Alien Rage",
                        "valor": "R$ 6,00",
                        "valorUS": "$ 2,99",
                        "porcentual": "80%",
                        "comentario": "G",
                        "tipoo": "=>"
                    },
                    {
                        "tipo": "linha de tabela",
                        "url": "https://afflnk.microsoft.com/c/1250666/439011/7803?u=http%3A%2F%2Fmarketplace.xbox.com%2Fpt-br%2FProduct%2FBully-Scholarship-Ed%2F66acd000-77fe-1000-9115-d8025454081a%3Fnosplash%3D1",
                        "titulo": "Bully Scholarship Ed.",
                        "valor": "R$ 19,60",
                        "valorUS": "$ 5,99",
                        "porcentual": "60%",
                        "comentario": "G,R",
                        "tipoo": "=>"
                    },
                    {
                        "tipo": "linha de tabela",
                        "url": "https://afflnk.microsoft.com/c/1250666/439011/7803?u=https%3A%2F%2Fmarketplace.xbox.com%2Fen-US%2FProduct%2FDogfight-1942%2F66acd000-77fe-1000-9115-d80258411265%3Fnosplash%3D1",
                        "titulo": "Dogfight 1942",
                        "valor": "-",
                        "valorUS": "$ 2,49",
                        "porcentual": "75%",
                        "comentario": "G",
                        "tipoo": "=>"
                    },
                    {
                        "tipo": "linha de tabela",
                        "url": "https://afflnk.microsoft.com/c/1250666/439011/7803?u=http%3A%2F%2Fmarketplace.xbox.com%2Fen-US%2FProduct%2FFire-over-Africa%2Fb0352bb8-0dad-4fed-84c1-5fe16cc9fb6a",
                        "titulo": "Dogfight 1942: Fire over Africa",
                        "valor": "-",
                        "valorUS": "$ 1,49",
                        "porcentual": "50%",
                        "comentario": "G",
                        "tipoo": "=>DLC"
                    },
                    {
                        "tipo": "linha de tabela",
                        "url": "https://afflnk.microsoft.com/c/1250666/439011/7803?u=http%3A%2F%2Fmarketplace.xbox.com%2Fen-US%2FProduct%2FRussia-under-Siege%2Fdfb4672e-5b8e-4457-ac1e-08867532c4ca",
                        "titulo": "Dogfight 1942: Russia under Siege",
                        "valor": "-",
                        "valorUS": "$ 1,49",
                        "porcentual": "50%",
                        "comentario": "G",
                        "tipoo": "=>DLC"
                    },
                    {
                        "tipo": "linha de tabela",
                        "url": "https://afflnk.microsoft.com/c/1250666/433017/7593?u=https%3A%2F%2Fmarketplace.xbox.com%2Fen-US%2FProduct%2FEnemy-Front%2F66acd000-77fe-1000-9115-d802435907d5%3Fnosplash%3D1%26DownloadType%3DGame%23LiveZone",
                        "titulo": "Enemy Front",
                        "valor": "-",
                        "valorUS": "$ 5,99",
                        "porcentual": "85%",
                        "comentario": "G",
                        "tipoo": "=>"
                    },
                    {
                        "tipo": "linha de tabela",
                        "url": "https://afflnk.microsoft.com/c/1250666/433017/7593?u=http%3A%2F%2Fmarketplace.xbox.com%2Fen-US%2FProduct%2FMultiplayer-Expansion-Pack%2F583e5a6e-0787-4238-bc74-959528c5bc15%3Fnosplash%3D1",
                        "titulo": "Enemy Front: Multiplayer Expansion Pack",
                        "valor": "-",
                        "valorUS": "$ 1,99",
                        "porcentual": "60%",
                        "comentario": "G",
                        "tipoo": "=>"
                    },
                    {
                        "tipo": "linha de tabela",
                        "url": "https://microsoft.msafflnk.net/c/1250666/439011/7803?u=http%3A%2F%2Fmarketplace.xbox.com%2Fpt-BR%2FProduct%2FGTA-V%2F66acd000-77fe-1000-9115-d802545408a7%3Fnosplash%3D1%26DownloadType%3DGame%23LiveZone",
                        "titulo": "GTA V",
                        "valor": "R$ 36,00",
                        "valorUS": "$ 9,99",
                        "porcentual": "50%",
                        "comentario": "G",
                        "tipoo": "=>"
                    },
                    {
                        "tipo": "linha de tabela",
                        "url": "https://microsoft.msafflnk.net/c/1250666/439011/7803?u=http%3A%2F%2Fmarketplace.xbox.com%2Fpt-br%2FProduct%2FLA-Noire%2F66acd000-77fe-1000-9115-d8025454086c%3Fnosplash%3D1",
                        "titulo": "L.A. Noire",
                        "valor": "R$ 38,70",
                        "valorUS": "$ 8,99",
                        "porcentual": "70%",
                        "comentario": "G",
                        "tipoo": "=>"
                    },
                    {
                        "tipo": "linha de tabela",
                        "url": "https://microsoft.msafflnk.net/c/1250666/439011/7803?u=http%3A%2F%2Fmarketplace.xbox.com%2Fpt-br%2FProduct%2FLEGO-Batman%2F66acd000-77fe-1000-9115-d802575207d7%3Fnosplash%3D1",
                        "titulo": "LEGO Batman",
                        "valor": "R$ 11,70",
                        "valorUS": "$ 5,99",
                        "porcentual": "70%",
                        "comentario": "R",
                        "tipoo": "=>"
                    },
                    {
                        "tipo": "linha de tabela",
                        "url": "https://microsoft.msafflnk.net/c/1250666/439011/7803?u=https%3A%2F%2Fmarketplace.xbox.com%2Fpt-br%2FProduct%2FLEGO-Batman-2%2F66acd000-77fe-1000-9115-d80257520817%3Fnosplash%3D1",
                        "titulo": "LEGO Batman 2",
                        "valor": "R$ 11,70",
                        "valorUS": "$ 5,99",
                        "porcentual": "60%",
                        "comentario": "R",
                        "tipoo": "=>"
                    },
                    {
                        "tipo": "linha de tabela",
                        "url": "https://microsoft.msafflnk.net/c/1250666/439011/7803?u=https%3A%2F%2Fmarketplace.xbox.com%2Fpt-br%2FProduct%2FBEYOND-GOTHAM%2F66acd000-77fe-1000-9115-d80257520845%3Fnosplash%3D1%26DownloadType%3DGame%23LiveZone",
                        "titulo": "LEGO BATMAN 3: BEYOND GOTHAM",
                        "valor": "R$ 53,70",
                        "valorUS": "$ 5,99",
                        "porcentual": "70%",
                        "comentario": "",
                        "tipoo": "=>"
                    },
                    {
                        "tipo": "linha de tabela",
                        "url": "https://microsoft.msafflnk.net/c/1250666/439011/7803?u=http%3A%2F%2Fmarketplace.xbox.com%2Fen-US%2FProduct%2FLEGO-Harry-Potter%2F66acd000-77fe-1000-9115-d802575207e6%3Fnosplash%3D1",
                        "titulo": "LEGO Harry Potter",
                        "valor": "-",
                        "valorUS": "$ 5,99",
                        "porcentual": "70%",
                        "comentario": "",
                        "tipoo": "=>"
                    },
                    {
                        "tipo": "linha de tabela",
                        "url": "https://microsoft.msafflnk.net/c/1250666/439011/7803?u=http%3A%2F%2Fmarketplace.xbox.com%2Fpt-br%2FProduct%2FLEGO-Harry-Potter-Years-5-7%2F66acd000-77fe-1000-9115-d80257520812%3Fnosplash%3D1",
                        "titulo": "LEGO Harry Potter: Years 5-7",
                        "valor": "R$ 11,70",
                        "valorUS": "$ 5,99",
                        "porcentual": "70%",
                        "comentario": "",
                        "tipoo": "=>"
                    },
                    {
                        "tipo": "linha de tabela",
                        "url": "https://microsoft.msafflnk.net/c/1250666/439011/7803?u=https%3A%2F%2Fmarketplace.xbox.com%2Fpt-br%2FProduct%2FLEGO-Jurassic-World%2F66acd000-77fe-1000-9115-d8025752084d%3Fnosplash%3D1%26DownloadType%3DGame%23LiveZone",
                        "titulo": "LEGO Jurassic World",
                        "valor": "R$ 53,70",
                        "valorUS": "$ 5,99",
                        "porcentual": "70%",
                        "comentario": "",
                        "tipoo": "=>"
                    },
                    {
                        "tipo": "linha de tabela",
                        "url": "https://microsoft.msafflnk.net/c/1250666/439011/7803?u=http%3A%2F%2Fmarketplace.xbox.com%2Fpt-br%2FProduct%2FLEGO-Marvel%2F66acd000-77fe-1000-9115-d80257520835%3Fnosplash%3D1%26DownloadType%3DGame%23LiveZone",
                        "titulo": "LEGO Marvel Super Heroes",
                        "valor": "R$ 53,70",
                        "valorUS": "$ 5,99",
                        "porcentual": "70%",
                        "comentario": "",
                        "tipoo": "=>"
                    },
                    {
                        "tipo": "linha de tabela",
                        "url": "https://microsoft.msafflnk.net/c/1250666/439011/7803?u=http%3A%2F%2Fmarketplace.xbox.com%2Fpt-br%2FProduct%2FLEGO-Star-Wars-EDF%2F66acd000-77fe-1000-9115-d80257520851%3FDownloadType%3DGame%23LiveZone",
                        "titulo": "LEGO Star Wars: The Force Awakens",
                        "valor": "R$ 39,00",
                        "valorUS": "$ 5,99",
                        "porcentual": "70%",
                        "comentario": "",
                        "tipoo": "=>"
                    },
                    {
                        "tipo": "linha de tabela",
                        "url": "https://afflnk.microsoft.com/c/1250666/439011/7803?u=http%3A%2F%2Fmarketplace.xbox.com%2Fpt-br%2FProduct%2FMax-Payne-3%2F66acd000-77fe-1000-9115-d8025454086b%3Fnosplash%3D1%26DownloadType%3DGame%23LiveZone",
                        "titulo": "Max Payne 3",
                        "valor": "R$ 49,50",
                        "valorUS": "$ 9,99",
                        "porcentual": "50%",
                        "comentario": "G",
                        "tipoo": "=>"
                    },
                    {
                        "tipo": "linha de tabela",
                        "url": "https://afflnk.microsoft.com/c/1250666/433017/7593?u=http%3A%2F%2Fmarketplace.xbox.com%2Fen-US%2FProduct%2FRotastic%2F66acd000-77fe-1000-9115-d80258410a75%3Fnosplash%3D1",
                        "titulo": "Rotastic",
                        "valor": "-",
                        "valorUS": "$ 0,99",
                        "porcentual": "80%",
                        "comentario": "G",
                        "tipoo": "=>"
                    },
                    {
                        "tipo": "linha de tabela",
                        "url": "https://microsoft.msafflnk.net/c/1250666/433017/7593?u=http%3A%2F%2Fmarketplace.xbox.com%2Fen-US%2FProduct%2FSniper-Ghost-Warrior-Second-Strike%2F8b7fc258-2438-499e-94ae-28056200aad4",
                        "titulo": "Sniper Ghost Warrior - Second Strike",
                        "valor": "-",
                        "valorUS": "$ 2,79",
                        "porcentual": "60%",
                        "comentario": "G",
                        "tipoo": "=>DLC"
                    },
                    {
                        "tipo": "linha de tabela",
                        "url": "https://microsoft.msafflnk.net/c/1250666/439011/7803?u=http%3A%2F%2Fmarketplace.xbox.com%2Fpt-br%2FProduct%2FSniper-Ghost-Warrior-2%2F66acd000-77fe-1000-9115-d802435907d4",
                        "titulo": "Sniper Ghost Warrior 2",
                        "valor": "R$ 14,85",
                        "valorUS": "$ 5,24",
                        "porcentual": "85%",
                        "comentario": "G",
                        "tipoo": "=>"
                    },
                    {
                        "tipo": "linha de tabela",
                        "url": "https://afflnk.microsoft.com/c/1250666/439011/7803?u=http%3A%2F%2Fmarketplace.xbox.com%2Fpt-br%2FProduct%2FSniper-Ghost-Warrior-2-Gold%2Fcd72a1f2-a7e7-4de3-8ab0-8dd01bb5b91e%3Fnosplash%3D1",
                        "titulo": "Sniper Ghost Warrior 2 - Gold",
                        "valor": "R$ 9,00",
                        "valorUS": "$ 4,49",
                        "porcentual": "70%",
                        "comentario": "G",
                        "tipoo": "=>DLC"
                    },
                    {
                        "tipo": "linha de tabela",
                        "url": "http://marketplace.xbox.com/pt-br/Product/Siberian-Strike/1ad0f5df-c173-4cd9-bcff-bc69eb92f4b0?nosplash=1",
                        "titulo": "Sniper Ghost Warrior 2: Siberian Strike",
                        "valor": "R$ 6,00",
                        "valorUS": "$ 2,99",
                        "porcentual": "70%",
                        "comentario": "G",
                        "tipoo": "=>DLC"
                    },
                    {
                        "tipo": "linha de tabela",
                        "url": "https://microsoft.msafflnk.net/c/1250666/439011/7803?u=http%3A%2F%2Fmarketplace.xbox.com%2Fpt-br%2FProduct%2FSniper-Ghost-Warrior%2F66acd000-77fe-1000-9115-d802435907d1",
                        "titulo": "Sniper: Ghost Warrior",
                        "valor": "R$ 4,35",
                        "valorUS": "$ 2,24",
                        "porcentual": "85%",
                        "comentario": "G",
                        "tipoo": "=>"
                    },
                    {
                        "tipo": "linha de tabela",
                        "url": "https://microsoft.msafflnk.net/c/1250666/439011/7803?u=http%3A%2F%2Fmarketplace.xbox.com%2Fpt-br%2FProduct%2FSniper-Ghost-Warrior-Map-Pack%2F0b877138-86e1-4c44-830b-add52211db42%3Fnosplash%3D1",
                        "titulo": "Sniper: Ghost Warrior - Map Pack",
                        "valor": "R$ 6,00",
                        "valorUS": "$ 2,99",
                        "porcentual": "70%",
                        "comentario": "G",
                        "tipoo": "=>DLC"
                    },
                    {
                        "tipo": "linha de tabela",
                        "url": "https://microsoft.msafflnk.net/c/1250666/439011/7803?u=https%3A%2F%2Fmarketplace.xbox.com%2Fpt-br%2FProduct%2FLEGO-Movie-Videogame%2F66acd000-77fe-1000-9115-d80257520841%3Fnosplash%3D1",
                        "titulo": "The Lego Movie Videogame",
                        "valor": "R$ 53,70",
                        "valorUS": "$ 5,99",
                        "porcentual": "70%",
                        "comentario": "",
                        "tipoo": "=>"
                    }
                ]
            },
            {
                "tipo": "tabela",
                "linhas": [
                    {
                        "tipo": "linha de tabela",
                        "url": "https://microsoft.msafflnk.net/c/1250666/439011/7803?u=https%3A%2F%2Fwww.microsoft.com%2Fpt-br%2Fstore%2Fp%2Faer-memories-of-old%2Fbvl0gllkhz6h",
                        "titulo": "AER - Memories of Old",
                        "valor": "R$ 21,75",
                        "valorUS": "$ 11,24",
                        "porcentual": "25%",
                        "comentario": "G",
                        "tipoo": "=>"
                    },
                    {
                        "tipo": "linha de tabela",
                        "url": "https://afflnk.microsoft.com/c/1250666/439011/7803?u=https%3A%2F%2Fwww.microsoft.com%2Fpt-br%2Fp%2Falekhines-gun%2Fbqz7jdwhwpv1",
                        "titulo": "Alekhine's Gun",
                        "valor": "R$ 32,70",
                        "valorUS": "$ 9,00",
                        "porcentual": "70%",
                        "comentario": "",
                        "tipoo": "=>"
                    },
                    {
                        "tipo": "linha de tabela",
                        "url": "https://afflnk.microsoft.com/c/1250666/439011/7803?u=https%3A%2F%2Fwww.microsoft.com%2Fpt-br%2Fp%2Fbeast-quest%2Fbr41rp923ng4",
                        "titulo": "Beast Quest",
                        "valor": "R$ 59,70",
                        "valorUS": "$ 12,00",
                        "porcentual": "70%",
                        "comentario": "",
                        "tipoo": "=>"
                    },
                    {
                        "tipo": "linha de tabela",
                        "url": "https://afflnk.microsoft.com/c/1250666/433017/7593?u=https%3A%2F%2Fwww.microsoft.com%2Fen-us%2Fp%2Fben-10%2Fc2tkn8h27m78",
                        "titulo": "Ben 10",
                        "valor": "-",
                        "valorUS": "$ 9,00",
                        "porcentual": "70%",
                        "comentario": "G",
                        "tipoo": "=>"
                    },
                    {
                        "tipo": "linha de tabela",
                        "url": "https://microsoft.msafflnk.net/c/1250666/439011/7803?u=https%3A%2F%2Fwww.microsoft.com%2Fpt-br%2Fstore%2Fp%2Fchaos-on-deponia%2Fbqh8wk0zs533",
                        "titulo": "Chaos on Deponia",
                        "valor": "R$ 19,50",
                        "valorUS": "$ 9,99",
                        "porcentual": "50%",
                        "comentario": "G",
                        "tipoo": "=>"
                    },
                    {
                        "tipo": "linha de tabela",
                        "url": "https://microsoft.msafflnk.net/c/1250666/439011/7803?u=https%3A%2F%2Fwww.microsoft.com%2Fpt-br%2Fp%2Fcrayola-scoot%2Fbxnv9zlk1cx9",
                        "titulo": "Crayola Scoot",
                        "valor": "R$ 23,70",
                        "valorUS": "$ 12,00",
                        "porcentual": "70%",
                        "comentario": "G,X",
                        "tipoo": "=>"
                    },
                    {
                        "tipo": "linha de tabela",
                        "url": "https://microsoft.msafflnk.net/c/1250666/439011/7803?u=https%3A%2F%2Fwww.microsoft.com%2Fpt-br%2Fp%2Fcrossout-frostburn-pack%2Fbptkk2zdcgfh",
                        "titulo": "Crossout – Frostburn Pack",
                        "valor": "R$ 39,50",
                        "valorUS": "$ 20,00",
                        "porcentual": "50%",
                        "comentario": "",
                        "tipoo": "=>DLC"
                    },
                    {
                        "tipo": "linha de tabela",
                        "url": "https://afflnk.microsoft.com/c/1250666/439011/7803?u=https%3A%2F%2Fwww.microsoft.com%2Fpt-br%2Fstore%2Fp%2Fxbox-now%2Fbt81tjz5kzb4",
                        "titulo": "Dead Alliance",
                        "valor": "R$ 44,70",
                        "valorUS": "$ 12,00",
                        "porcentual": "70%",
                        "comentario": "",
                        "tipoo": "=>"
                    },
                    {
                        "tipo": "linha de tabela",
                        "url": "https://microsoft.msafflnk.net/c/1250666/439011/7803?u=https%3A%2F%2Fwww.microsoft.com%2Fpt-br%2Fp%2Fdead-alliance-multiplayer-edition%2Fbtc8fgmpc65b",
                        "titulo": "Dead Alliance: Multiplayer Edition",
                        "valor": "R$ 37,50",
                        "valorUS": "$ 7,50",
                        "porcentual": "70%",
                        "comentario": "",
                        "tipoo": "=>"
                    },
                    {
                        "tipo": "linha de tabela",
                        "url": "https://microsoft.msafflnk.net/c/1250666/439011/7803?u=https%3A%2F%2Fwww.microsoft.com%2Fpt-br%2Fp%2Fdestiny-2-forsaken%2Fbq56jmh9s69f",
                        "titulo": "Destiny 2: Renegados",
                        "valor": "R$ 65,00",
                        "valorUS": "$ 20,00",
                        "porcentual": "50%",
                        "comentario": "G,X",
                        "tipoo": "=>"
                    },
                    {
                        "tipo": "linha de tabela",
                        "url": "https://microsoft.msafflnk.net/c/1250666/439011/7803?u=https%3A%2F%2Fwww.microsoft.com%2Fpt-br%2Fp%2Fdestiny-2-forsaken-annual-pass%2Fbztn9dblkw5t",
                        "titulo": "Destiny 2: Renegados + Passe Anual",
                        "valor": "R$ 171,50",
                        "valorUS": "$ 48,99",
                        "porcentual": "30%",
                        "comentario": "G,X",
                        "tipoo": "=>jogo + DLC"
                    },
                    {
                        "tipo": "linha de tabela",
                        "url": "https://microsoft.msafflnk.net/c/1250666/439011/7803?u=https%3A%2F%2Fwww.microsoft.com%2Fpt-br%2Fp%2Fdestiny-2-forsaken-legendary-collection%2Fc25jldq0wsf4",
                        "titulo": "Destiny 2: Renegados - Coleção Lendária",
                        "valor": "R$ 115,00",
                        "valorUS": "$ 30,00",
                        "porcentual": "50%",
                        "comentario": "G,X",
                        "tipoo": "=>jogo + DLC"
                    },
                    {
                        "tipo": "linha de tabela",
                        "url": "https://microsoft.msafflnk.net/c/1250666/439011/7803?u=https%3A%2F%2Fwww.microsoft.com%2Fpt-br%2Fp%2Fdestiny-2-forsaken-digital-deluxe-edition%2Fc44rrpgdvvjg",
                        "titulo": "Destiny 2: Renegados - Edição Digital Deluxe",
                        "valor": "R$ 175,50",
                        "valorUS": "$ 51,99",
                        "porcentual": "35%",
                        "comentario": "G,X",
                        "tipoo": "=>jogo + DLC"
                    },
                    {
                        "tipo": "linha de tabela",
                        "url": "https://microsoft.msafflnk.net/c/1250666/439011/7803?u=https%3A%2F%2Fwww.microsoft.com%2Fpt-br%2Fp%2Fdestiny-2-forsaken-complete-collection%2Fbpdf10q2wh07",
                        "titulo": "Destiny 2: Renegados – Coleção Completa",
                        "valor": "R$ 179,40",
                        "valorUS": "$ 59,99",
                        "porcentual": "40%",
                        "comentario": "G,X",
                        "tipoo": "=>jogo + DLC"
                    },
                    {
                        "tipo": "linha de tabela",
                        "url": "https://microsoft.msafflnk.net/c/1250666/439011/7803?u=https%3A%2F%2Fwww.microsoft.com%2Fpt-br%2Fp%2Fdoodle-god-crime-city%2F9pdgrszs54lf",
                        "titulo": "Doodle God: Crime City",
                        "valor": "R$ 16,86",
                        "valorUS": "$ 4,54",
                        "porcentual": "35%",
                        "comentario": "G,X",
                        "tipoo": "=>"
                    },
                    {
                        "tipo": "linha de tabela",
                        "url": "https://afflnk.microsoft.com/c/1250666/439011/7803?u=https%3A%2F%2Fwww.microsoft.com%2Fpt-br%2Fstore%2Fp%2Fdovetail-games-euro-fishing%2Fc5828hs8k39d",
                        "titulo": "Dovetail Games Euro Fishing",
                        "valor": "R$ 10,80",
                        "valorUS": "$ 5,55",
                        "porcentual": "70%",
                        "comentario": "G",
                        "tipoo": "=>"
                    },
                    {
                        "tipo": "linha de tabela",
                        "url": "https://afflnk.microsoft.com/c/1250666/439011/7803?u=https%3A%2F%2Fwww.microsoft.com%2Fpt-br%2Fstore%2Fp%2Feuro-fishing-bergsee%2Fc2f71k5v10m1",
                        "titulo": "Euro Fishing: Bergsee",
                        "valor": "R$ 8,40",
                        "valorUS": "$ 4,40",
                        "porcentual": "60%",
                        "comentario": "",
                        "tipoo": "=>DLC"
                    },
                    {
                        "tipo": "linha de tabela",
                        "url": "https://afflnk.microsoft.com/c/1250666/439011/7803?u=https%3A%2F%2Fwww.microsoft.com%2Fpt-br%2Fp%2Feuro-fishing-castle-edition%2Fbpdwh28hm2w7",
                        "titulo": "Euro Fishing: Castle Edition",
                        "valor": "R$ 19,60",
                        "valorUS": "$ 10,00",
                        "porcentual": "60%",
                        "comentario": "X",
                        "tipoo": "=>"
                    },
                    {
                        "tipo": "linha de tabela",
                        "url": "https://microsoft.msafflnk.net/c/1250666/439011/7803?u=https%3A%2F%2Fwww.microsoft.com%2Fpt-br%2Fstore%2Fp%2Feuro-fishing-foundry-dock%2Fbx463m9240wp",
                        "titulo": "Euro Fishing: Foundry Dock",
                        "valor": "R$ 8,40",
                        "valorUS": "$ 4,40",
                        "porcentual": "60%",
                        "comentario": "",
                        "tipoo": "=>DLC"
                    },
                    {
                        "tipo": "linha de tabela",
                        "url": "https://afflnk.microsoft.com/c/1250666/439011/7803?u=https%3A%2F%2Fwww.microsoft.com%2Fpt-br%2Fp%2Feuro-fishing-hunters-lake%2Fbt93bq6c9zhl",
                        "titulo": "Euro Fishing: Hunters Lake",
                        "valor": "R$ 8,40",
                        "valorUS": "$ 4,40",
                        "porcentual": "60%",
                        "comentario": "",
                        "tipoo": "=>DLC"
                    },
                    {
                        "tipo": "linha de tabela",
                        "url": "https://afflnk.microsoft.com/c/1250666/439011/7803?u=https%3A%2F%2Fwww.microsoft.com%2Fpt-br%2Fstore%2Fp%2Feuro-fishing-le-lac-dor%2Fc19c03dxtd54",
                        "titulo": "Euro Fishing: Le Lac d'Or",
                        "valor": "R$ 8,40",
                        "valorUS": "$ 4,40",
                        "porcentual": "60%",
                        "comentario": "",
                        "tipoo": "=>DLC"
                    },
                    {
                        "tipo": "linha de tabela",
                        "url": "https://afflnk.microsoft.com/c/1250666/439011/7803?u=https%3A%2F%2Fwww.microsoft.com%2Fpt-br%2Fp%2Feuro-fishing-lilies%2Fc0pnb0vc1sc7",
                        "titulo": "Euro Fishing: Lilies",
                        "valor": "R$ 8,40",
                        "valorUS": "$ 4,40",
                        "porcentual": "60%",
                        "comentario": "",
                        "tipoo": "=>DLC"
                    },
                    {
                        "tipo": "linha de tabela",
                        "url": "https://afflnk.microsoft.com/c/1250666/439011/7803?u=https%3A%2F%2Fwww.microsoft.com%2Fpt-br%2Fstore%2Fp%2Feuro-fishing-manor-farm-lake%2Fc0m3l4chz1ct",
                        "titulo": "Euro Fishing: Manor Farm Lake",
                        "valor": "R$ 8,40",
                        "valorUS": "$ 4,40",
                        "porcentual": "60%",
                        "comentario": "",
                        "tipoo": "=>DLC"
                    },
                    {
                        "tipo": "linha de tabela",
                        "url": "https://afflnk.microsoft.com/c/1250666/439011/7803?u=https%3A%2F%2Fwww.microsoft.com%2Fpt-br%2Fstore%2Fp%2Feuro-fishing-season-pass%2Fbxfw1tbhnsnh",
                        "titulo": "Euro Fishing: Season Pass",
                        "valor": "R$ 35,50",
                        "valorUS": "$ 18,00",
                        "porcentual": "50%",
                        "comentario": "",
                        "tipoo": "=>DLC"
                    },
                    {
                        "tipo": "linha de tabela",
                        "url": "https://afflnk.microsoft.com/c/1250666/439011/7803?u=https%3A%2F%2Fwww.microsoft.com%2Fpt-br%2Fp%2Feuro-fishing-the-moat%2Fc5g2dc6s06kb",
                        "titulo": "Euro Fishing: The Moat",
                        "valor": "R$ 8,40",
                        "valorUS": "$ 4,40",
                        "porcentual": "60%",
                        "comentario": "",
                        "tipoo": "=>DLC"
                    },
                    {
                        "tipo": "linha de tabela",
                        "url": "https://afflnk.microsoft.com/c/1250666/439011/7803?u=https%3A%2F%2Fwww.microsoft.com%2Fpt-br%2Fp%2Feuro-fishing-ultimate-edition%2Fbzl79z8gkdwv",
                        "titulo": "Euro Fishing: Ultimate Edition",
                        "valor": "R$ 60,20",
                        "valorUS": "$ 30,44",
                        "porcentual": "30%",
                        "comentario": "G,X",
                        "tipoo": "=>jogo + DLC"
                    },
                    {
                        "tipo": "linha de tabela",
                        "url": "https://afflnk.microsoft.com/c/1250666/439011/7803?u=https%3A%2F%2Fwww.microsoft.com%2Fpt-br%2Fstore%2Fp%2Feuro-fishing-waldsee%2Fbws83wcccx74",
                        "titulo": "Euro Fishing: Waldsee",
                        "valor": "R$ 8,40",
                        "valorUS": "$ 4,40",
                        "porcentual": "60%",
                        "comentario": "",
                        "tipoo": "=>DLC"
                    },
                    {
                        "tipo": "linha de tabela",
                        "url": "https://afflnk.microsoft.com/c/1250666/439011/7803?u=https%3A%2F%2Fwww.microsoft.com%2Fpt-br%2Fstore%2Fp%2Fextinction%2Fbwdzzgdhx47m",
                        "titulo": "Extinction",
                        "valor": "R$ 59,70",
                        "valorUS": "$ 18,00",
                        "porcentual": "70%",
                        "comentario": "",
                        "tipoo": "=>"
                    },
                    {
                        "tipo": "linha de tabela",
                        "url": "https://afflnk.microsoft.com/c/1250666/439011/7803?u=https%3A%2F%2Fwww.microsoft.com%2Fpt-br%2Fstore%2Fp%2Fextinction-deluxe-edition%2Fbr256wb8p0nr",
                        "titulo": "Extinction: Deluxe Edition",
                        "valor": "R$ 68,70",
                        "valorUS": "$ 21,00",
                        "porcentual": "70%",
                        "comentario": "",
                        "tipoo": "=>jogo + DLC"
                    },
                    {
                        "tipo": "linha de tabela",
                        "url": "https://microsoft.msafflnk.net/c/1250666/439011/7803?u=https%3A%2F%2Fwww.microsoft.com%2Fpt-br%2Fp%2Fconjunto-far-cry-5-far-cry-new-dawn-deluxe-edition%2Fc3585q6d4bft",
                        "titulo": "Far Cry 5 + Far Cry New Dawn Deluxe Edition",
                        "valor": "R$ 210,00",
                        "valorUS": "$ 59,99",
                        "porcentual": "40%",
                        "comentario": "X",
                        "tipoo": "=>jogo + DLC"
                    },
                    {
                        "tipo": "linha de tabela",
                        "url": "https://microsoft.msafflnk.net/c/1250666/439011/7803?u=https%3A%2F%2Fwww.microsoft.com%2Fpt-br%2Fp%2Fconjunto-far-cry-5-gold-edition-far-cry-new-dawn-deluxe-edition%2Fc4d86zhwz424",
                        "titulo": "Far Cry 5 Gold Edition + Far Cry New Dawn Deluxe Edition",
                        "valor": "R$ 240,00",
                        "valorUS": "$ 77,99",
                        "porcentual": "40%",
                        "comentario": "X",
                        "tipoo": "=>jogo + DLC"
                    },
                    {
                        "tipo": "linha de tabela",
                        "url": "https://afflnk.microsoft.com/c/1250666/439011/7803?u=https%3A%2F%2Fwww.microsoft.com%2Fpt-br%2Fstore%2Fp%2Ffarming-simulator-17-premium-edition%2Fc48wtdznrzwk",
                        "titulo": "Farming Simulator 17 - Premium Edition",
                        "valor": "R$ 68,70",
                        "valorUS": "$ 18,00",
                        "porcentual": "70%",
                        "comentario": "G,X",
                        "tipoo": "=>jogo + DLC"
                    },
                    {
                        "tipo": "linha de tabela",
                        "url": "https://microsoft.msafflnk.net/c/1250666/439011/7803?u=https%3A%2F%2Fwww.microsoft.com%2Fpt-br%2Fstore%2Fp%2Fhuman-fall-flat%2Fbsmzh25v6v46",
                        "titulo": "Human Fall Flat",
                        "valor": "R$ 11,60",
                        "valorUS": "$ 5,99",
                        "porcentual": "60%",
                        "comentario": "",
                        "tipoo": "=>"
                    },
                    {
                        "tipo": "linha de tabela",
                        "url": "https://afflnk.microsoft.com/c/1250666/439011/7803?u=https%3A%2F%2Fwww.microsoft.com%2Fpt-br%2Fstore%2Fp%2Findie-bundle-shiness-and-seasons-after-fall%2Fc0c3qc3j5jx2",
                        "titulo": "INDIE BUNDLE: Shiness and Seasons after Fall",
                        "valor": "R$ 29,75",
                        "valorUS": "$ 10,00",
                        "porcentual": "75%",
                        "comentario": "G",
                        "tipoo": "=>"
                    },
                    {
                        "tipo": "linha de tabela",
                        "url": "https://afflnk.microsoft.com/c/1250666/439011/7803?u=https%3A%2F%2Fwww.microsoft.com%2Fpt-br%2Fp%2Finfinite-air-with-mark-mcmorris%2Fbxq20tp7lgbk",
                        "titulo": "Infinite Air with Mark McMorris",
                        "valor": "R$ 17,70",
                        "valorUS": "$ 9,00",
                        "porcentual": "70%",
                        "comentario": "",
                        "tipoo": "=>"
                    },
                    {
                        "tipo": "linha de tabela",
                        "url": "https://afflnk.microsoft.com/c/1250666/439011/7803?u=https%3A%2F%2Fwww.microsoft.com%2Fpt-br%2Fstore%2Fp%2Flego-batman-3-beyond-gotham%2Fc0gmw8qh429t",
                        "titulo": "LEGO Batman 3: Beyond Gotham",
                        "valor": "R$ 49,50",
                        "valorUS": "$ 10,00",
                        "porcentual": "50%",
                        "comentario": "",
                        "tipoo": "=>"
                    },
                    {
                        "tipo": "linha de tabela",
                        "url": "https://afflnk.microsoft.com/c/1250666/439011/7803?u=https%3A%2F%2Fwww.microsoft.com%2Fpt-br%2Fstore%2Fp%2Flego-batman-3-beyond-gotham-deluxe-edition%2Fc4hfhz44z3r3",
                        "titulo": "LEGO Batman 3: Beyond Gotham Deluxe Edition",
                        "valor": "R$ 64,50",
                        "valorUS": "$ 17,50",
                        "porcentual": "50%",
                        "comentario": "",
                        "tipoo": "=>jogo + DLC"
                    },
                    {
                        "tipo": "linha de tabela",
                        "url": "https://afflnk.microsoft.com/c/1250666/439011/7803?u=https%3A%2F%2Fwww.microsoft.com%2Fpt-br%2Fstore%2Fp%2Flego-city-undercover%2Fbs5rxll3wq2j",
                        "titulo": "LEGO CITY Undercover",
                        "valor": "R$ 60,00",
                        "valorUS": "$ 15,00",
                        "porcentual": "50%",
                        "comentario": "",
                        "tipoo": "=>"
                    },
                    {
                        "tipo": "linha de tabela",
                        "url": "https://microsoft.msafflnk.net/c/1250666/439011/7803?u=https%3A%2F%2Fwww.microsoft.com%2Fpt-br%2Fp%2Flego-dc-super-villains%2Fbqxvsgcx6k8w",
                        "titulo": "LEGO DC Super-Villains",
                        "valor": "R$ 115,00",
                        "valorUS": "$ 30,00",
                        "porcentual": "50%",
                        "comentario": "",
                        "tipoo": "=>"
                    },
                    {
                        "tipo": "linha de tabela",
                        "url": "https://microsoft.msafflnk.net/c/1250666/439011/7803?u=https%3A%2F%2Fwww.microsoft.com%2Fpt-br%2Fp%2Flego-dc-super-villains-deluxe-edition%2Fc5jz67gmqfjn",
                        "titulo": "LEGO DC Super-Villains Deluxe Edition",
                        "valor": "R$ 168,00",
                        "valorUS": "$ 44,99",
                        "porcentual": "40%",
                        "comentario": "X",
                        "tipoo": "=>jogo + DLC"
                    },
                    {
                        "tipo": "linha de tabela",
                        "url": "https://microsoft.msafflnk.net/c/1250666/439011/7803?u=https%3A%2F%2Fwww.microsoft.com%2Fpt-br%2Fp%2Flego-harry-potter-collection%2Fc3qj2z8q7hfr",
                        "titulo": "LEGO Harry Potter Collection",
                        "valor": "R$ 90,00",
                        "valorUS": "$ 23,99",
                        "porcentual": "40%",
                        "comentario": "X",
                        "tipoo": "=>"
                    },
                    {
                        "tipo": "linha de tabela",
                        "url": "https://afflnk.microsoft.com/c/1250666/439011/7803?u=https%3A%2F%2Fwww.microsoft.com%2Fpt-br%2Fstore%2Fp%2Flego-jurassic-world%2Fbptwsrmjh2jf",
                        "titulo": "LEGO Jurassic World",
                        "valor": "R$ 90,00",
                        "valorUS": "$ 10,00",
                        "porcentual": "50%",
                        "comentario": "",
                        "tipoo": "=>"
                    },
                    {
                        "tipo": "linha de tabela",
                        "url": "https://microsoft.msafflnk.net/c/1250666/439011/7803?u=https%3A%2F%2Fwww.microsoft.com%2Fpt-br%2Fstore%2Fp%2Flego-marvel-super-heroes%2Fbzgz3g053nth",
                        "titulo": "LEGO Marvel Super Heroes",
                        "valor": "R$ 99,50",
                        "valorUS": "$ 10,00",
                        "porcentual": "50%",
                        "comentario": "",
                        "tipoo": "=>"
                    },
                    {
                        "tipo": "linha de tabela",
                        "url": "https://afflnk.microsoft.com/c/1250666/439011/7803?u=https%3A%2F%2Fwww.microsoft.com%2Fpt-br%2Fstore%2Fp%2Flego-marvel-super-heroes-2%2Fc0g91v37489h",
                        "titulo": "LEGO Marvel Super Heroes 2",
                        "valor": "R$ 39,50",
                        "valorUS": "$ 10,00",
                        "porcentual": "50%",
                        "comentario": "X",
                        "tipoo": "=>"
                    },
                    {
                        "tipo": "linha de tabela",
                        "url": "https://afflnk.microsoft.com/c/1250666/439011/7803?u=https%3A%2F%2Fwww.microsoft.com%2Fpt-br%2Fstore%2Fp%2Flego-marvel-super-heroes-2-deluxe-edition%2Fc4btwd7xq91p",
                        "titulo": "Lego Marvel Super Heroes 2 Deluxe Edition",
                        "valor": "R$ 64,50",
                        "valorUS": "$ 17,50",
                        "porcentual": "50%",
                        "comentario": "X",
                        "tipoo": "=>jogo + DLC"
                    },
                    {
                        "tipo": "linha de tabela",
                        "url": "https://afflnk.microsoft.com/c/1250666/439011/7803?u=https%3A%2F%2Fwww.microsoft.com%2Fpt-br%2Fstore%2Fp%2Flego-marvel-super-heroes-bundle%2Fc3nttqnmqpgp",
                        "titulo": "LEGO Marvel Super Heroes Bundle",
                        "valor": "R$ 125,00",
                        "valorUS": "$ 30,00",
                        "porcentual": "50%",
                        "comentario": "X",
                        "tipoo": "=>"
                    },
                    {
                        "tipo": "linha de tabela",
                        "url": "https://afflnk.microsoft.com/c/1250666/439011/7803?u=https%3A%2F%2Fwww.microsoft.com%2Fpt-br%2Fp%2Flego-marvel-super-heroes-deluxe-bundle%2Fc4mjf7f4lg8c",
                        "titulo": "LEGO Marvel Super Heroes Deluxe Bundle",
                        "valor": "R$ 150,00",
                        "valorUS": "$ 37,50",
                        "porcentual": "50%",
                        "comentario": "X",
                        "tipoo": "=>jogo + DLC"
                    },
                    {
                        "tipo": "linha de tabela",
                        "url": "https://afflnk.microsoft.com/c/1250666/439011/7803?u=https%3A%2F%2Fwww.microsoft.com%2Fpt-br%2Fstore%2Fp%2Flego-marvels-avengers-deluxe-edition%2Fbvj6mpfr35ns",
                        "titulo": "LEGO Marvel’s Avengers Deluxe Edition",
                        "valor": "R$ 100,00",
                        "valorUS": "$ 15,00",
                        "porcentual": "50%",
                        "comentario": "",
                        "tipoo": "=>jogo + DLC"
                    },
                    {
                        "tipo": "linha de tabela",
                        "url": "https://afflnk.microsoft.com/c/1250666/439011/7803?u=https%3A%2F%2Fwww.microsoft.com%2Fen-us%2Fstore%2Fp%2Flego-movies-game-bundle%2Fbz0lbhc2c1fx",
                        "titulo": "LEGO Movies Game Bundle",
                        "valor": "R$ 100,00",
                        "valorUS": "$ 25,00",
                        "porcentual": "50%",
                        "comentario": "",
                        "tipoo": "=>"
                    },
                    {
                        "tipo": "linha de tabela",
                        "url": "https://microsoft.msafflnk.net/c/1250666/439011/7803?u=https%3A%2F%2Fwww.microsoft.com%2Fpt-br%2Fstore%2Fp%2Flego-star-wars-the-force-awakens%2Fbshzgcgjncn5",
                        "titulo": "Lego Star Wars Despertar da Força",
                        "valor": "R$ 50,00",
                        "valorUS": "$ 10,00",
                        "porcentual": "50%",
                        "comentario": "",
                        "tipoo": "=>"
                    },
                    {
                        "tipo": "linha de tabela",
                        "url": "https://microsoft.msafflnk.net/c/1250666/439011/7803?u=https%3A%2F%2Fwww.microsoft.com%2Fpt-br%2Fstore%2Fp%2Flego-star-wars-the-force-awakens-deluxe-edition%2Fc3kr2llcjm25",
                        "titulo": "Lego Star Wars Despertar da Força Deluxe Edition",
                        "valor": "R$ 65,00",
                        "valorUS": "$ 15,00",
                        "porcentual": "50%",
                        "comentario": "",
                        "tipoo": "=>jogo + DLC"
                    },
                    {
                        "tipo": "linha de tabela",
                        "url": "https://microsoft.msafflnk.net/c/1250666/439011/7803?u=https%3A%2F%2Fwww.microsoft.com%2Fpt-br%2Fstore%2Fp%2Flego-marvels-avengers%2Fbrw7flnq19pk",
                        "titulo": "Lego Vingadores",
                        "valor": "R$ 90,00",
                        "valorUS": "$ 10,00",
                        "porcentual": "50%",
                        "comentario": "",
                        "tipoo": "=>"
                    },
                    {
                        "tipo": "linha de tabela",
                        "url": "https://afflnk.microsoft.com/c/1250666/439011/7803?u=https%3A%2F%2Fwww.microsoft.com%2Fpt-br%2Fstore%2Fp%2Flego-worlds%2Fbwpv4qxw8w2c",
                        "titulo": "LEGO Worlds",
                        "valor": "R$ 65,00",
                        "valorUS": "$ 15,00",
                        "porcentual": "50%",
                        "comentario": "",
                        "tipoo": "=>"
                    },
                    {
                        "tipo": "linha de tabela",
                        "url": "https://afflnk.microsoft.com/c/1250666/439011/7803?u=https%3A%2F%2Fwww.microsoft.com%2Fpt-br%2Fp%2Flego-the-incredibles%2Fbzp3r43f8dnh",
                        "titulo": "Lego: The Incredibles",
                        "valor": "R$ 100,00",
                        "valorUS": "$ 30,00",
                        "porcentual": "50%",
                        "comentario": "",
                        "tipoo": "=>"
                    },
                    {
                        "tipo": "linha de tabela",
                        "url": "https://afflnk.microsoft.com/c/1250666/439011/7803?u=https%3A%2F%2Fwww.microsoft.com%2Fpt-br%2Fp%2Flichdom-battlemage%2Fbvjk7v1bdqrf",
                        "titulo": "Lichdom: Battlemage",
                        "valor": "R$ 32,70",
                        "valorUS": "$ 9,00",
                        "porcentual": "70%",
                        "comentario": "",
                        "tipoo": "=>"
                    },
                    {
                        "tipo": "linha de tabela",
                        "url": "https://microsoft.msafflnk.net/c/1250666/439011/7803?u=https%3A%2F%2Fwww.microsoft.com%2Fpt-br%2Fstore%2Fp%2Flords-of-the-fallen%2Fc5fp8dq3r1wf",
                        "titulo": "Lords of the Fallen",
                        "valor": "R$ 11,85",
                        "valorUS": "$ 3,00",
                        "porcentual": "85%",
                        "comentario": "G",
                        "tipoo": "=>"
                    },
                    {
                        "tipo": "linha de tabela",
                        "url": "https://afflnk.microsoft.com/c/1250666/439011/7803?u=https%3A%2F%2Fwww.microsoft.com%2Fpt-br%2Fstore%2Fp%2Flords-of-the-fallen-digital-complete-edition%2Fbshdwv6hv59g",
                        "titulo": "Lords of the Fallen Digital Complete Edition",
                        "valor": "R$ 14,85",
                        "valorUS": "$ 4,50",
                        "porcentual": "85%",
                        "comentario": "G",
                        "tipoo": "=>jogo + DLC"
                    },
                    {
                        "tipo": "linha de tabela",
                        "url": "https://www.microsoft.com/pt-br/store/p/complete-edition-bundle/btqlz40fsrvb?tduid=(09bab4cc2a78521681e4d7b8a3a674b3)(263915)(2907108)()()",
                        "titulo": "Lords of the Fallen: Complete Edition Bundle",
                        "valor": "R$ 5,60",
                        "valorUS": "$ 2,90",
                        "porcentual": "80%",
                        "comentario": "",
                        "tipoo": "=>DLC"
                    },
                    {
                        "tipo": "linha de tabela",
                        "url": "https://afflnk.microsoft.com/c/1250666/439011/7803?u=https%3A%2F%2Fwww.microsoft.com%2Fpt-br%2Fp%2Fmadden-nfl-19%2Fbvf5zgd9nm52",
                        "titulo": "Madden NFL 19",
                        "valor": "R$ 59,75",
                        "valorUS": "$ 15,00",
                        "porcentual": "75%",
                        "comentario": "G,X",
                        "tipoo": "=>"
                    },
                    {
                        "tipo": "linha de tabela",
                        "url": "https://afflnk.microsoft.com/c/1250666/439011/7803?u=https%3A%2F%2Fwww.microsoft.com%2Fpt-br%2Fp%2Fmadden-nfl-19-hall-of-fame-edition%2Fbpjt98hk2bzl",
                        "titulo": "Madden NFL 19: Hall of Fame Edition",
                        "valor": "R$ 79,75",
                        "valorUS": "$ 20,00",
                        "porcentual": "75%",
                        "comentario": "G,X",
                        "tipoo": "=>jogo + DLC"
                    },
                    {
                        "tipo": "linha de tabela",
                        "url": "https://microsoft.msafflnk.net/c/1250666/439011/7803?u=https%3A%2F%2Fwww.microsoft.com%2Fpt-br%2Fp%2Fnightmare-boy%2Fbv082185kv5l",
                        "titulo": "Nightmare Boy",
                        "valor": "R$ 12,50",
                        "valorUS": "$ 6,49",
                        "porcentual": "50%",
                        "comentario": "G",
                        "tipoo": "=>"
                    },
                    {
                        "tipo": "linha de tabela",
                        "url": "https://afflnk.microsoft.com/c/1250666/439011/7803?u=https%3A%2F%2Fwww.microsoft.com%2Fpt-br%2Fstore%2Fp%2Foutcast-second-contact%2Fbsjch71j6bzf",
                        "titulo": "Outcast - Second Contact",
                        "valor": "R$ 53,60",
                        "valorUS": "$ 16,00",
                        "porcentual": "60%",
                        "comentario": "G",
                        "tipoo": "=>"
                    },
                    {
                        "tipo": "linha de tabela",
                        "url": "https://microsoft.msafflnk.net/c/1250666/439011/7803?u=https%3A%2F%2Fwww.microsoft.com%2Fpt-br%2Fp%2Foverride-mech-city-brawl-season-pass%2Fbv330q20dr14",
                        "titulo": "Override: Mech City Brawl – Season Pass",
                        "valor": "R$ 18,85",
                        "valorUS": "$ 9,74",
                        "porcentual": "35%",
                        "comentario": "",
                        "tipoo": "=>DLC"
                    },
                    {
                        "tipo": "linha de tabela",
                        "url": "https://microsoft.msafflnk.net/c/1250666/439011/7803?u=https%3A%2F%2Fwww.microsoft.com%2Fpt-br%2Fp%2Foxenfree%2Fbsk1gn27rb8r",
                        "titulo": "Oxenfree",
                        "valor": "R$ 15,60",
                        "valorUS": "$ 7,99",
                        "porcentual": "60%",
                        "comentario": "G",
                        "tipoo": "=>"
                    },
                    {
                        "tipo": "linha de tabela",
                        "url": "https://microsoft.msafflnk.net/c/1250666/439011/7803?u=https%3A%2F%2Fwww.microsoft.com%2Fpt-br%2Fp%2Fred-dead-redemption-2%2Fbpswgqbw7r3g",
                        "titulo": "Red Dead Redemption 2",
                        "valor": "R$ 166,83",
                        "valorUS": "$ 40,19",
                        "porcentual": "33%",
                        "comentario": "G,X",
                        "tipoo": "=>"
                    },
                    {
                        "tipo": "linha de tabela",
                        "url": "https://microsoft.msafflnk.net/c/1250666/439011/7803?u=https%3A%2F%2Fwww.microsoft.com%2Fpt-br%2Fp%2Fred-dead-redemption-2-special-edition%2Fbp53zx212rjj",
                        "titulo": "Red Dead Redemption 2: Edição Especial",
                        "valor": "R$ 200,33",
                        "valorUS": "$ 53,59",
                        "porcentual": "33%",
                        "comentario": "G,X",
                        "tipoo": "=>jogo + DLC"
                    },
                    {
                        "tipo": "linha de tabela",
                        "url": "https://microsoft.msafflnk.net/c/1250666/439011/7803?u=https%3A%2F%2Fwww.microsoft.com%2Fpt-br%2Fp%2Fred-dead-redemption-2-ultimate-edition%2Fbq4phg4bbglw",
                        "titulo": "Red Dead Redemption 2: Ultimate Edition",
                        "valor": "R$ 233,83",
                        "valorUS": "$ 66,99",
                        "porcentual": "33%",
                        "comentario": "G,X",
                        "tipoo": "=>jogo + DLC"
                    },
                    {
                        "tipo": "linha de tabela",
                        "url": "https://afflnk.microsoft.com/c/1250666/439011/7803?u=https%3A%2F%2Fwww.microsoft.com%2Fpt-br%2Fp%2Fshalnor-legends-sacred-lands%2F9pgxzdqc92tk",
                        "titulo": "Shalnor Legends: Sacred Lands",
                        "valor": "R$ 28,46",
                        "valorUS": "$ 7,49",
                        "porcentual": "25%",
                        "comentario": "G",
                        "tipoo": "=>"
                    },
                    {
                        "tipo": "linha de tabela",
                        "url": "https://afflnk.microsoft.com/c/1250666/439011/7803?u=https%3A%2F%2Fwww.microsoft.com%2Fpt-br%2Fstore%2Fp%2Fsniper-ghost-warrior-3-season-pass-edition%2Fbtlhxrcn1jfn",
                        "titulo": "Sniper Ghost Warrior 3 Season Pass Edition",
                        "valor": "R$ 45,87",
                        "valorUS": "$ 13,20",
                        "porcentual": "67%",
                        "comentario": "G",
                        "tipoo": "=>jogo + DLC"
                    },
                    {
                        "tipo": "linha de tabela",
                        "url": "https://microsoft.msafflnk.net/c/1250666/439011/7803?u=https%3A%2F%2Fwww.microsoft.com%2Fpt-br%2Fp%2Fstate-of-anarchy-master-of-mayhem%2Fbp8f95f6nvhm",
                        "titulo": "State of Anarchy: Master of Mayhem",
                        "valor": "R$ 11,06",
                        "valorUS": "$ 5,59",
                        "porcentual": "30%",
                        "comentario": "G,X",
                        "tipoo": "=>"
                    },
                    {
                        "tipo": "linha de tabela",
                        "url": "https://microsoft.msafflnk.net/c/1250666/439011/7803?u=https%3A%2F%2Fwww.microsoft.com%2Fpt-br%2Fp%2Fstick-it-to-the-man%2Fbppggjv0m1nh",
                        "titulo": "Stick it To The Man",
                        "valor": "R$ 3,16",
                        "valorUS": "$ 1,59",
                        "porcentual": "80%",
                        "comentario": "G",
                        "tipoo": "=>"
                    },
                    {
                        "tipo": "linha de tabela",
                        "url": "https://afflnk.microsoft.com/c/1250666/439011/7803?u=https%3A%2F%2Fwww.microsoft.com%2Fpt-br%2Fstore%2Fp%2Fthe-golf-club-2%2Fc1l07ls6j1kz",
                        "titulo": "The Golf Club 2",
                        "valor": "R$ 38,70",
                        "valorUS": "$ 9,00",
                        "porcentual": "70%",
                        "comentario": "",
                        "tipoo": "=>"
                    },
                    {
                        "tipo": "linha de tabela",
                        "url": "https://afflnk.microsoft.com/c/1250666/439011/7803?u=https%3A%2F%2Fwww.microsoft.com%2Fpt-br%2Fstore%2Fp%2Fthe-lego-movie-videogame%2Fc42ggwf64wh8",
                        "titulo": "The LEGO Movie Videogame",
                        "valor": "R$ 119,40",
                        "valorUS": "$ 11,99",
                        "porcentual": "40%",
                        "comentario": "",
                        "tipoo": "=>"
                    },
                    {
                        "tipo": "linha de tabela",
                        "url": "https://afflnk.microsoft.com/c/1250666/439011/7803?u=https%3A%2F%2Fwww.microsoft.com%2Fpt-br%2Fstore%2Fp%2Fthe-lego-ninjago-movie-video-game%2Fbqkknpkx1c4p",
                        "titulo": "The LEGO NINJAGO Movie Video Game",
                        "valor": "R$ 90,00",
                        "valorUS": "$ 29,99",
                        "porcentual": "40%",
                        "comentario": "",
                        "tipoo": "=>"
                    },
                    {
                        "tipo": "linha de tabela",
                        "url": "https://afflnk.microsoft.com/c/1250666/439011/7803?u=https%3A%2F%2Fwww.microsoft.com%2Fpt-br%2Fp%2Fthe-surge-augmented-edition%2Fbxgh809qc9l8",
                        "titulo": "The Surge - Augmented Edition",
                        "valor": "R$ 57,50",
                        "valorUS": "$ 15,00",
                        "porcentual": "75%",
                        "comentario": "G,X",
                        "tipoo": "=>jogo + DLC"
                    },
                    {
                        "tipo": "linha de tabela",
                        "url": "https://microsoft.msafflnk.net/c/1250666/439011/7803?u=https%3A%2F%2Fwww.microsoft.com%2Fpt-br%2Fstore%2Fp%2Fthimbleweed-park%2F9nblggh40dcm",
                        "titulo": "Thimbleweed Park",
                        "valor": "R$ 37,47",
                        "valorUS": "$ 9,99",
                        "porcentual": "50%",
                        "comentario": "G,A",
                        "tipoo": "=>"
                    },
                    {
                        "tipo": "linha de tabela",
                        "url": "https://microsoft.msafflnk.net/c/1250666/439011/7803?u=https%3A%2F%2Fwww.microsoft.com%2Fpt-br%2Fp%2Fthronebreaker-the-witcher-tales%2Fc09lfd39hklw",
                        "titulo": "Thronebreaker: The Witcher Tales",
                        "valor": "R$ 82,50",
                        "valorUS": "$ 22,49",
                        "porcentual": "25%",
                        "comentario": "G",
                        "tipoo": "=>"
                    },
                    {
                        "tipo": "linha de tabela",
                        "url": "https://afflnk.microsoft.com/c/1250666/439011/7803?u=https%3A%2F%2Fwww.microsoft.com%2Fpt-br%2Fstore%2Fp%2Ftt-isle-of-man%2Fc1shgh9p2npr",
                        "titulo": "TT Isle of Man",
                        "valor": "R$ 139,20",
                        "valorUS": "$ 43,19",
                        "porcentual": "40%",
                        "comentario": "G,X",
                        "tipoo": "=>"
                    },
                    {
                        "tipo": "linha de tabela",
                        "url": "https://afflnk.microsoft.com/c/1250666/439011/7803?u=https%3A%2F%2Fwww.microsoft.com%2Fpt-br%2Fstore%2Fp%2Fwarhammer-bundle-mordheim-and-blood-bowl-2%2Fbrk8mr2lmckh",
                        "titulo": "Warhammer Bundle: Mordheim and Blood Bowl 2",
                        "valor": "R$ 37,25",
                        "valorUS": "$ 12,50",
                        "porcentual": "75%",
                        "comentario": "G",
                        "tipoo": "=>"
                    }
                ]
            }
        ]
    },
    {
        "titulo": "\nXbox Live, Games with Gold\n",
        "link": "http://www.promocaogames.com.br/2019/02/xbox-live-games-with-gold.html",
        "data": "2019-02-15T11:00:00-02:00",
        "autor": "\nMauro Ribeiro\n",
        "comentarios": 22,
        "conteudoTextual": "\nHoje é o último dia para assinantes Gold pegarem de graça os seguintes jogos.\n\nPara Xbox 360 e Xbox One:\n\nAssassin's Creed Rogue\n\nPara Xbox One:\n\nWRC 6 FIA World Rally Championship \n\nE já foram liberados os jogos da segunda quinzena:\n\nPara Xbox 360 e Xbox One:\n\nStar Wars Jedi Knight: Jedi Academy (de 16 a 28 de fevereiro)\n\nPara Xbox One:\n\nSuper Bomberman R (de 16/02 a 15/03)\n\nE continua liberado até o final do mês para Xbox One:\n\nBloodstained: Curse of the Moon (de 1 a 28 de fevereiro)\n\n\n",
        "conteudos": []
    },
    {
        "titulo": "\nXbox Live, Far Cry 5\n",
        "link": "http://www.promocaogames.com.br/2019/02/xbox-live-far-cry-5.html",
        "data": "2019-02-14T23:14:00-02:00",
        "autor": "\nMauro Ribeiro\n",
        "comentarios": 27,
        "conteudoTextual": "\nApareceu hoje na Live o Far Cry 5 por apenas R$ 49,75 (75% de desconto). Provavelmente é devido ao lançamento do Far Cry New Dawn, que continua a história dele, alguns anos no futuro.\n\nEle fica em promoção até o dia 24/02.\n\n\n",
        "conteudos": []
    },
    {
        "titulo": "\nXbox Live, Promoção Anime Month\n",
        "link": "http://www.promocaogames.com.br/2019/02/xbox-live-promocao-anime-month_14.html",
        "data": "2019-02-14T23:09:00-02:00",
        "autor": "\nMauro Ribeiro\n",
        "comentarios": 18,
        "conteudoTextual": "\ntable#t1 {font-family: arial, sans-serif;border-collapse: collapse;width: 100%;}table#t1 td, th {border: 1px solid #dddddd;text-align: left;padding: 4px;}background-color: rgba(255, 255, 255, 0.8);}table#t1 tr:nth-child(odd) {background-color: rgba(255, 255, 255, 0.8);}table#t1 thead {background-color: rgba(150, 150, 150, 1);}table#t1 tr:nth-child(even) {background-color: rgba(255, 255, 255, 0.8);}table#t2 {font-family: arial, sans-serif;border-collapse: collapse;width: 100%;}table#t2 td, th {border: 1px solid #dddddd;text-align: left;padding: 4px;}table#t2 tr:nth-child(even) {background-color: #dddddd;}table#t2 tr:nth-child(odd) {background-color: #ffffff;}\n\nif(typeof sorttable == \"undefined\"){\ndocument.write('<scr'+'ipt src=\"https://kryogenix.org/code/browser/sorttable/sorttable.js\"></scr'+'ipt>');\n}\n\n\n\n\nSegue abaixo jogos desta semana da promoção Anime Month.\n\nEstes ficam em promoção de 15 a 21 de fevereiro\n\nÚltima atualização: 16/02 - 10:32\n\nPara Xbox 360:\n\n\nNomeBRUSA%ObsTipo\n\nCAPCOM ARCADE CABINET : ALL-IN-ONE PACKR$ 12,50$ 6,2475%G,RDLC\nFinal Fight: Double Impact-$ 2,4975%G,R\nPersona 4 Arena-$ 7,4950%G,R\nPersona 4 Arena Ultimax-$ 9,9950%G\n\n\n\nPara Xbox One:\n\n\nNomeBRUSA%ObsTipo\n\nACA NEOGEO FATAL FURY 2R$ 14,00$ 4,0050%\nACA NEOGEO SAMURAI SHODOWNR$ 14,00$ 4,0050%\nACA NEOGEO TOP HUNTER RODDY & CATHYR$ 14,00$ 4,0050%\nAttack on TitanR$ 114,50$ 30,0050%\nAttack on Titan 2R$ 71,40$ 35,9940%X\nNARUTO SHIPPUDEN: Ultimate Ninja STORM 2R$ 25,00$ 5,0075%\nNARUTO SHIPPUDEN: Ultimate Ninja STORM 3 Full BurstR$ 25,00$ 5,0075%\nNARUTO SHIPPUDEN: Ultimate Ninja STORM 4R$ 23,75$ 7,5075%\nNARUTO SHIPPUDEN: Ultimate Ninja STORM 4 ROAD TO BORUTOR$ 50,00$ 12,5075%jogo + DLC\nNARUTO SHIPPUDEN: Ultimate Ninja STORM 4 ROAD TO BORUTO PackR$ 20,00$ 5,0075%DLC\nNARUTO SHIPPUDEN: Ultimate Ninja STORM LegacyR$ 62,50$ 17,5075%jogo + DLC\nNARUTO SHIPPUDEN: Ultimate Ninja STORM TrilogyR$ 35,00$ 10,0075%\nNARUTO STORM 4 - Season PassR$ 22,25$ 5,0075%DLC\nNARUTO: Ultimate Ninja STORMR$ 25,00$ 5,0075%\nShining Resonance RefrainR$ 102,50$ 25,0050%X\nSWORD ART ONLINE: FATAL BULLETR$ 120,00$ 29,9925%X\nTreasure Stack-$ 17,9910%X\n\n\n\nG = desconto para assinantes Gold\nR = retrocompatível\nA = XBOX Play Anywhere\nX = Otimizado para Xbox One X\n\n\n",
        "conteudos": [
            {
                "tipo": "tabela",
                "linhas": [
                    {
                        "tipo": "linha de tabela",
                        "url": "https://afflnk.microsoft.com/c/1250666/439011/7803?u=http%3A%2F%2Fmarketplace.xbox.com%2Fpt-br%2FProduct%2FCAPCOM-ARCADE-CABINET-ALL-IN-ONE-PACK%2Fa14e7c1d-3975-4ef1-a1c4-7911f75555bc%3Fnosplash%3D1",
                        "titulo": "CAPCOM ARCADE CABINET : ALL-IN-ONE PACK",
                        "valor": "R$ 12,50",
                        "valorUS": "$ 6,24",
                        "porcentual": "75%",
                        "comentario": "G,R",
                        "tipoo": "=>DLC"
                    },
                    {
                        "tipo": "linha de tabela",
                        "url": "https://afflnk.microsoft.com/c/1250666/439011/7803?u=http%3A%2F%2Fmarketplace.xbox.com%2Fen-US%2FProduct%2FFinal-Fight-DblImpact%2F66acd000-77fe-1000-9115-d802584109dd%3Fnosplash%3D1",
                        "titulo": "Final Fight: Double Impact",
                        "valor": "-",
                        "valorUS": "$ 2,49",
                        "porcentual": "75%",
                        "comentario": "G,R",
                        "tipoo": "=>"
                    },
                    {
                        "tipo": "linha de tabela",
                        "url": "https://microsoft.msafflnk.net/c/1250666/439011/7803?u=http%3A%2F%2Fmarketplace.xbox.com%2Fen-US%2FProduct%2FP4A%2F66acd000-77fe-1000-9115-d802453907d2%3Fnosplash%3D1",
                        "titulo": "Persona 4 Arena",
                        "valor": "-",
                        "valorUS": "$ 7,49",
                        "porcentual": "50%",
                        "comentario": "G,R",
                        "tipoo": "=>"
                    },
                    {
                        "tipo": "linha de tabela",
                        "url": "https://afflnk.microsoft.com/c/1250666/433017/7593?u=http%3A%2F%2Fmarketplace.xbox.com%2Fen-US%2FProduct%2FP4AU%2F66acd000-77fe-1000-9115-d802415407e2%3FDownloadType%3DGame%23LiveZone",
                        "titulo": "Persona 4 Arena Ultimax",
                        "valor": "-",
                        "valorUS": "$ 9,99",
                        "porcentual": "50%",
                        "comentario": "G",
                        "tipoo": "=>"
                    }
                ]
            },
            {
                "tipo": "tabela",
                "linhas": [
                    {
                        "tipo": "linha de tabela",
                        "url": "https://microsoft.msafflnk.net/c/1250666/439011/7803?u=https%3A%2F%2Fwww.microsoft.com%2Fpt-br%2Fp%2Faca-neogeo-fatal-fury-2%2Fc0w720gjxw41",
                        "titulo": "ACA NEOGEO FATAL FURY 2",
                        "valor": "R$ 14,00",
                        "valorUS": "$ 4,00",
                        "porcentual": "50%",
                        "comentario": "",
                        "tipoo": "=>"
                    },
                    {
                        "tipo": "linha de tabela",
                        "url": "https://microsoft.msafflnk.net/c/1250666/439011/7803?u=https%3A%2F%2Fwww.microsoft.com%2Fpt-br%2Fp%2Faca-neogeo-samurai-shodown%2Fc5fc1bspwbbg",
                        "titulo": "ACA NEOGEO SAMURAI SHODOWN",
                        "valor": "R$ 14,00",
                        "valorUS": "$ 4,00",
                        "porcentual": "50%",
                        "comentario": "",
                        "tipoo": "=>"
                    },
                    {
                        "tipo": "linha de tabela",
                        "url": "https://microsoft.msafflnk.net/c/1250666/439011/7803?u=https%3A%2F%2Fwww.microsoft.com%2Fpt-br%2Fp%2Faca-neogeo-top-hunter-roddy-cathy%2Fbtsgbq7f9hwx",
                        "titulo": "ACA NEOGEO TOP HUNTER RODDY & CATHY",
                        "valor": "R$ 14,00",
                        "valorUS": "$ 4,00",
                        "porcentual": "50%",
                        "comentario": "",
                        "tipoo": "=>"
                    },
                    {
                        "tipo": "linha de tabela",
                        "url": "https://microsoft.msafflnk.net/c/1250666/439011/7803?u=https%3A%2F%2Fwww.microsoft.com%2Fpt-br%2Fstore%2Fp%2Fattack-on-titan%2Fc3qwvtz6htcb",
                        "titulo": "Attack on Titan",
                        "valor": "R$ 114,50",
                        "valorUS": "$ 30,00",
                        "porcentual": "50%",
                        "comentario": "",
                        "tipoo": "=>"
                    },
                    {
                        "tipo": "linha de tabela",
                        "url": "https://microsoft.msafflnk.net/c/1250666/439011/7803?u=https%3A%2F%2Fwww.microsoft.com%2Fpt-br%2Fp%2Fattack-on-titan-2%2Fc596v0p64dd6",
                        "titulo": "Attack on Titan 2",
                        "valor": "R$ 71,40",
                        "valorUS": "$ 35,99",
                        "porcentual": "40%",
                        "comentario": "X",
                        "tipoo": "=>"
                    },
                    {
                        "tipo": "linha de tabela",
                        "url": "https://microsoft.msafflnk.net/c/1250666/439011/7803?u=https%3A%2F%2Fwww.microsoft.com%2Fpt-br%2Fp%2Fnaruto-shippuden-ultimate-ninja-storm-2%2Fbz4g0hjxtw09",
                        "titulo": "NARUTO SHIPPUDEN: Ultimate Ninja STORM 2",
                        "valor": "R$ 25,00",
                        "valorUS": "$ 5,00",
                        "porcentual": "75%",
                        "comentario": "",
                        "tipoo": "=>"
                    },
                    {
                        "tipo": "linha de tabela",
                        "url": "https://microsoft.msafflnk.net/c/1250666/439011/7803?u=https%3A%2F%2Fwww.microsoft.com%2Fpt-br%2Fstore%2Fp%2Fnaruto-shippuden-ultimate-ninja-storm-3-full-burst%2Fbzvk6gf5mgxs",
                        "titulo": "NARUTO SHIPPUDEN: Ultimate Ninja STORM 3 Full Burst",
                        "valor": "R$ 25,00",
                        "valorUS": "$ 5,00",
                        "porcentual": "75%",
                        "comentario": "",
                        "tipoo": "=>"
                    },
                    {
                        "tipo": "linha de tabela",
                        "url": "https://microsoft.msafflnk.net/c/1250666/439011/7803?u=https%3A%2F%2Fwww.microsoft.com%2Fpt-br%2Fstore%2Fp%2Fnaruto-shippuden-ultimate-ninja-storm-4%2Fc1kx6knb7xmm",
                        "titulo": "NARUTO SHIPPUDEN: Ultimate Ninja STORM 4",
                        "valor": "R$ 23,75",
                        "valorUS": "$ 7,50",
                        "porcentual": "75%",
                        "comentario": "",
                        "tipoo": "=>"
                    },
                    {
                        "tipo": "linha de tabela",
                        "url": "https://microsoft.msafflnk.net/c/1250666/439011/7803?u=https%3A%2F%2Fwww.microsoft.com%2Fpt-br%2Fstore%2Fp%2Fnaruto-shippuden-ultimate-ninja-storm-4-road-to-boruto%2Fbr1qz16d82q4",
                        "titulo": "NARUTO SHIPPUDEN: Ultimate Ninja STORM 4 ROAD TO BORUTO",
                        "valor": "R$ 50,00",
                        "valorUS": "$ 12,50",
                        "porcentual": "75%",
                        "comentario": "",
                        "tipoo": "=>jogo + DLC"
                    },
                    {
                        "tipo": "linha de tabela",
                        "url": "https://microsoft.msafflnk.net/c/1250666/439011/7803?u=https%3A%2F%2Fwww.microsoft.com%2Fpt-br%2Fp%2Fnaruto-shippuden-ultimate-ninja-storm-4-road-to-boruto-pack%2Fc1l25n3xtccp",
                        "titulo": "NARUTO SHIPPUDEN: Ultimate Ninja STORM 4 ROAD TO BORUTO Pack",
                        "valor": "R$ 20,00",
                        "valorUS": "$ 5,00",
                        "porcentual": "75%",
                        "comentario": "",
                        "tipoo": "=>DLC"
                    },
                    {
                        "tipo": "linha de tabela",
                        "url": "https://afflnk.microsoft.com/c/1250666/439011/7803?u=https%3A%2F%2Fwww.microsoft.com%2Fpt-br%2Fp%2Fnaruto-shippuden-ultimate-ninja-storm-legacy%2Fbv7g9f275f94",
                        "titulo": "NARUTO SHIPPUDEN: Ultimate Ninja STORM Legacy",
                        "valor": "R$ 62,50",
                        "valorUS": "$ 17,50",
                        "porcentual": "75%",
                        "comentario": "",
                        "tipoo": "=>jogo + DLC"
                    },
                    {
                        "tipo": "linha de tabela",
                        "url": "https://afflnk.microsoft.com/c/1250666/439011/7803?u=https%3A%2F%2Fwww.microsoft.com%2Fpt-br%2Fstore%2Fp%2Fnaruto-shippuden-ultimate-ninja-storm-trilogy%2Fbnvmw9kwtjh0",
                        "titulo": "NARUTO SHIPPUDEN: Ultimate Ninja STORM Trilogy",
                        "valor": "R$ 35,00",
                        "valorUS": "$ 10,00",
                        "porcentual": "75%",
                        "comentario": "",
                        "tipoo": "=>"
                    },
                    {
                        "tipo": "linha de tabela",
                        "url": "https://microsoft.msafflnk.net/c/1250666/439011/7803?u=https%3A%2F%2Fwww.microsoft.com%2Fpt-br%2Fstore%2Fp%2Fnaruto-storm-4-season-pass%2Fc27310sv00g5",
                        "titulo": "NARUTO STORM 4 - Season Pass",
                        "valor": "R$ 22,25",
                        "valorUS": "$ 5,00",
                        "porcentual": "75%",
                        "comentario": "",
                        "tipoo": "=>DLC"
                    },
                    {
                        "tipo": "linha de tabela",
                        "url": "https://microsoft.msafflnk.net/c/1250666/439011/7803?u=https%3A%2F%2Fwww.microsoft.com%2Fpt-br%2Fstore%2Fp%2Fnaruto-ultimate-ninja-storm%2Fbq2m15pmblkd",
                        "titulo": "NARUTO: Ultimate Ninja STORM",
                        "valor": "R$ 25,00",
                        "valorUS": "$ 5,00",
                        "porcentual": "75%",
                        "comentario": "",
                        "tipoo": "=>"
                    },
                    {
                        "tipo": "linha de tabela",
                        "url": "https://microsoft.msafflnk.net/c/1250666/439011/7803?u=https%3A%2F%2Fwww.microsoft.com%2Fpt-br%2Fp%2Fshining-resonance-refrain%2Fbxfp2qc134v7%3Factivetab%3Dpivot%3Aoverviewtab",
                        "titulo": "Shining Resonance Refrain",
                        "valor": "R$ 102,50",
                        "valorUS": "$ 25,00",
                        "porcentual": "50%",
                        "comentario": "X",
                        "tipoo": "=>"
                    },
                    {
                        "tipo": "linha de tabela",
                        "url": "https://afflnk.microsoft.com/c/1250666/439011/7803?u=https%3A%2F%2Fwww.microsoft.com%2Fpt-br%2Fp%2Fsword-art-online-fatal-bullet%2Fbwh56dk175p1",
                        "titulo": "SWORD ART ONLINE: FATAL BULLET",
                        "valor": "R$ 120,00",
                        "valorUS": "$ 29,99",
                        "porcentual": "25%",
                        "comentario": "X",
                        "tipoo": "=>"
                    },
                    {
                        "tipo": "linha de tabela",
                        "url": "https://microsoft.msafflnk.net/c/1250666/439011/7803?u=https%3A%2F%2Fwww.microsoft.com%2Fen-us%2Fp%2Ftreasure-stack%2F9pkp696hvl7t",
                        "titulo": "Treasure Stack",
                        "valor": "-",
                        "valorUS": "$ 17,99",
                        "porcentual": "10%",
                        "comentario": "X",
                        "tipoo": "=>"
                    }
                ]
            }
        ]
    },
    {
        "titulo": "\nXbox Game Pass\n",
        "link": "http://www.promocaogames.com.br/2019/02/xbox-game-pass_14.html",
        "data": "2019-02-14T21:02:00-02:00",
        "autor": "\nMauro Ribeiro\n",
        "comentarios": 9,
        "conteudoTextual": "\nForam anunciados os jogos que saem do Game Pass no final de fevereiro:\n\nAven Colony\nDovetail Games Euro Fishing\nShadow Warrior\nSonic CD\nThe Final Station\nLumo\nKyub\nMega Coin Squad\nMassive Chalice\nResident Evil Revelations 2 Contemplation\n\n\n",
        "conteudos": []
    },
    {
        "titulo": "\nXbox Live, jogos liberados\n",
        "link": "http://www.promocaogames.com.br/2019/02/xbox-live-jogos-liberados_14.html",
        "data": "2019-02-14T20:53:00-02:00",
        "autor": "\nMauro Ribeiro\n",
        "comentarios": 2,
        "conteudoTextual": "\nEste final de semana Rainbow Six Siege e NBA 2K19 estão liberados para assinantes Gold. Ficam de quinta até domingo.\n\nTambém estão com desconto durante o período.\n\nNBA 2K19 por R$ 82,17 (67% off)\nNBA 2K19 20th Anniversary Edition por R$ 115,17 (67% off)\n\nRainbow Six Siege: Deluxe Edition por R$ 44,70 (70% off)\nRainbow Six Siege: Gold Edition por R$ 99,50 (50% off)\nRainbow Six Siege: Ultimate Edition por R$ 149,50 (50% off)\n\n\n\n",
        "conteudos": []
    },
    {
        "titulo": "\nPromoções de quarta, 13 de fevereiro\n",
        "link": "http://www.promocaogames.com.br/2019/02/promocoes-de-quarta-13-de-fevereiro.html",
        "data": "2019-02-13T20:37:00-02:00",
        "autor": "\nMauro Ribeiro\n",
        "comentarios": 6,
        "conteudoTextual": "\nNo Magazine Luiza:\n\nPara Xbox One:\n\nDishonored: Death of the Outsider por R$ 29,90\nPillars of Eternity: Complete Edition por R$ 39,90\nSea of Thieves por R$ 39,90\nWolfenstein II por R$ 39,90\nFallout 4 GOTY por R$ 58,99\n\nPara PS4:\n\nPillars of Eternity: Complete Edition por R$ 39,90\nWolfenstein II por R$ 39,90\n\n\n\n",
        "conteudos": []
    }
]