[
    {
        "titulo": "Tecnologia - Telecomunicações",
        "listForum": [
            {
                "link": "forums/smartphones-tablets-e-outros-dispositivos-moveis.152/",
                "titulo": "Smartphones, Tablets e outros dispositivos móveis",
                "discussoes": "Discussões: 9,608",
                "mensagens": "Mensagens: 534,295",
                "secao": "Tecnologia - Telecomunicações"
            },
            {
                "link": "forums/tv-digital-e-por-assinatura.153/",
                "titulo": "TV Digital e por Assinatura",
                "discussoes": "Discussões: 835",
                "mensagens": "Mensagens: 22,622",
                "secao": "Tecnologia - Telecomunicações"
            },
            {
                "link": "forums/internet-redes.121/",
                "titulo": "Internet & Redes",
                "discussoes": "Discussões: 15,329",
                "mensagens": "Mensagens: 438,678",
                "secao": "Tecnologia - Telecomunicações"
            },
            {
                "link": "forums/circuito-fechado-de-tv-cftv-e-afins.226/",
                "titulo": "Circuito Fechado de TV (CFTV) e afins",
                "discussoes": "Discussões: 265",
                "mensagens": "Mensagens: 1,484",
                "secao": "Tecnologia - Telecomunicações"
            }
        ]
    },
    {
        "titulo": "Tecnologia - Eletrônicos",
        "listForum": [
            {
                "link": "forums/aparelhos-de-tv.148/",
                "titulo": "Aparelhos de TV",
                "discussoes": "Discussões: 5,163",
                "mensagens": "Mensagens: 56,765",
                "secao": "Tecnologia - Eletrônicos"
            },
            {
                "link": "forums/audio-home-theater-e-dvd.149/",
                "titulo": "Áudio, Home Theater e DVD",
                "discussoes": "Discussões: 3,213",
                "mensagens": "Mensagens: 20,944",
                "secao": "Tecnologia - Eletrônicos"
            },
            {
                "link": "forums/mp3-mp4-ipod-e-gps.150/",
                "titulo": "MP3, MP4, Ipod e GPS",
                "discussoes": "Discussões: 964",
                "mensagens": "Mensagens: 14,720",
                "secao": "Tecnologia - Eletrônicos"
            },
            {
                "link": "forums/cameras-digitais-filmadoras-e-tecnicas-relacionad.80/",
                "titulo": "Câmeras Digitais, Filmadoras e Técnicas relacionad",
                "discussoes": "Discussões: 3,381",
                "mensagens": "Mensagens: 53,333",
                "secao": "Tecnologia - Eletrônicos"
            }
        ]
    },
    {
        "titulo": "Tecnologia - Hardwares",
        "listForum": [
            {
                "link": "forums/refrigeracao-de-componentes.225/",
                "titulo": "Refrigeração de componentes",
                "discussoes": "Discussões: 4,454",
                "mensagens": "Mensagens: 76,617",
                "secao": "Tecnologia - Hardwares"
            },
            {
                "link": "forums/notebooks.175/",
                "titulo": "Notebooks",
                "discussoes": "Discussões: 11,870",
                "mensagens": "Mensagens: 196,358",
                "secao": "Tecnologia - Hardwares"
            },
            {
                "link": "forums/cpus-placas-mae-e-memorias.8/",
                "titulo": "CPU´s, Placas-mãe e Memórias",
                "discussoes": "Discussões: 71,398",
                "mensagens": "Mensagens: 987,976",
                "secao": "Tecnologia - Hardwares"
            },
            {
                "link": "forums/placas-de-video-e-monitores.23/",
                "titulo": "Placas de vídeo e Monitores",
                "discussoes": "Discussões: 60,770",
                "mensagens": "Mensagens: 1,201,770",
                "secao": "Tecnologia - Hardwares"
            },
            {
                "link": "forums/audio-pc.170/",
                "titulo": "Áudio PC",
                "discussoes": "Discussões: 4,186",
                "mensagens": "Mensagens: 89,556",
                "secao": "Tecnologia - Hardwares"
            },
            {
                "link": "forums/armazenamento.171/",
                "titulo": "Armazenamento",
                "discussoes": "Discussões: 5,678",
                "mensagens": "Mensagens: 67,634",
                "secao": "Tecnologia - Hardwares"
            },
            {
                "link": "forums/gabinetes-e-case-mod.44/",
                "titulo": "Gabinetes e Case Mod",
                "discussoes": "Discussões: 4,678",
                "mensagens": "Mensagens: 178,270",
                "secao": "Tecnologia - Hardwares"
            },
            {
                "link": "forums/energia.173/",
                "titulo": "Energia",
                "discussoes": "Discussões: 7,652",
                "mensagens": "Mensagens: 75,433",
                "secao": "Tecnologia - Hardwares"
            },
            {
                "link": "forums/overclocks.177/",
                "titulo": "Overclocks",
                "discussoes": "Discussões: 2,651",
                "mensagens": "Mensagens: 43,246",
                "secao": "Tecnologia - Hardwares"
            },
            {
                "link": "forums/perifericos-e-acessorios.213/",
                "titulo": "Periféricos e Acessórios",
                "discussoes": "Discussões: 42,488",
                "mensagens": "Mensagens: 657,504",
                "secao": "Tecnologia - Hardwares"
            }
        ]
    },
    {
        "titulo": "Tecnologia - Diversos",
        "listForum": [
            {
                "link": "forums/3d-stereo.220/",
                "titulo": "3D Stereo",
                "discussoes": "Discussões: 129",
                "mensagens": "Mensagens: 7,659",
                "secao": "Tecnologia - Diversos"
            },
            {
                "link": "forums/area-mac.157/",
                "titulo": "Área Mac",
                "discussoes": "Discussões: 981",
                "mensagens": "Mensagens: 14,432",
                "secao": "Tecnologia - Diversos"
            },
            {
                "link": "forums/design-desenvolvimento-e-banco-de-dados.219/",
                "titulo": "Design, Desenvolvimento e Banco de Dados",
                "discussoes": "Discussões: 791",
                "mensagens": "Mensagens: 4,905",
                "secao": "Tecnologia - Diversos"
            }
        ]
    },
    {
        "titulo": "Tecnologia - Sistemas Operacionais",
        "listForum": [
            {
                "link": "forums/area-windows.155/",
                "titulo": "Área Windows",
                "discussoes": "Discussões: 23,776",
                "mensagens": "Mensagens: 288,386",
                "secao": "Tecnologia - Sistemas Operacionais"
            },
            {
                "link": "forums/area-linux-e-open-source.128/",
                "titulo": "Área Linux e Open Source",
                "discussoes": "Discussões: 2,375",
                "mensagens": "Mensagens: 23,059",
                "secao": "Tecnologia - Sistemas Operacionais"
            }
        ]
    },
    {
        "titulo": "Games",
        "listForum": [
            {
                "link": "forums/pc.13/",
                "titulo": "PC",
                "discussoes": "Discussões: 27,155",
                "mensagens": "Mensagens: 2,662,352",
                "secao": "Games"
            },
            {
                "link": "forums/consoles.14/",
                "titulo": "Consoles",
                "discussoes": "Discussões: 15,534",
                "mensagens": "Mensagens: 976,303",
                "secao": "Games"
            },
            {
                "link": "forums/mobile.227/",
                "titulo": "Mobile",
                "discussoes": "Discussões: 224",
                "mensagens": "Mensagens: 8,611",
                "secao": "Games"
            },
            {
                "link": "forums/retro.224/",
                "titulo": "Retrô",
                "discussoes": "Discussões: 637",
                "mensagens": "Mensagens: 9,647",
                "secao": "Games"
            },
            {
                "link": "forums/e-sports.185/",
                "titulo": "E-Sports",
                "discussoes": "Discussões: 1,242",
                "mensagens": "Mensagens: 25,573",
                "secao": "Games"
            }
        ]
    },
    {
        "titulo": "AdrenaCHAT",
        "listForum": [
            {
                "link": "categories/videos-streaming.238/",
                "titulo": "Videos & Streaming",
                "discussoes": "Discussões: 819",
                "mensagens": "Mensagens: 1,959",
                "secao": "AdrenaCHAT"
            },
            {
                "link": "forums/for-sale.221/",
                "titulo": "FOR SALE!",
                "discussoes": "Discussões: 16,817",
                "mensagens": "Mensagens: 279,250",
                "secao": "AdrenaCHAT"
            },
            {
                "link": "forums/papo-cabeca.135/",
                "titulo": "Papo Cabeça",
                "discussoes": "Discussões: 9,556",
                "mensagens": "Mensagens: 365,892",
                "secao": "AdrenaCHAT"
            },
            {
                "link": "forums/tv-musica-livros-revistas-filmes-e-series.216/",
                "titulo": "TV, Música, Livros, Revistas, Filmes e Séries",
                "discussoes": "Discussões: 1,268",
                "mensagens": "Mensagens: 118,068",
                "secao": "AdrenaCHAT"
            },
            {
                "link": "forums/computacao-distribuida.217/",
                "titulo": "Computação Distribuída",
                "discussoes": "Discussões: 78",
                "mensagens": "Mensagens: 10,767",
                "secao": "AdrenaCHAT"
            },
            {
                "link": "forums/geral.15/",
                "titulo": "Geral",
                "discussoes": "Discussões: 56,255",
                "mensagens": "Mensagens: 3,675,713",
                "secao": "AdrenaCHAT"
            }
        ]
    },
    {
        "titulo": "Classificados",
        "listForum": [
            {
                "link": "forums/bazar-do-usuario.116/",
                "titulo": "Bazar do Usuário",
                "discussoes": "Discussões: 39,852",
                "mensagens": "Mensagens: 803,752",
                "secao": "Classificados"
            },
            {
                "link": "forums/vagas-de-emprego.223/",
                "titulo": "Vagas de Emprego",
                "discussoes": "Discussões: 113",
                "mensagens": "Mensagens: 344",
                "secao": "Classificados"
            },
            {
                "link": "forums/feedback.201/",
                "titulo": "FeedBack",
                "discussoes": "Discussões: 240",
                "mensagens": "Mensagens: 7,433",
                "secao": "Classificados"
            }
        ]
    },
    {
        "titulo": "Administração do Portal/Fórum",
        "listForum": [
            {
                "link": "forums/sugestoes-duvidas-reclamacoes.7/",
                "titulo": "Sugestões, Dúvidas & Reclamações",
                "discussoes": "Discussões: 4,232",
                "mensagens": "Mensagens: 45,366",
                "secao": "Administração do Portal/Fórum"
            }
        ]
    }
]