[
    {
        "link": "http://www.ps4iso.net/god-of-war-eur.html",
        "titulo": "God of War + DLC (EUR)",
        "thumb": ""
    },
    {
        "link": "http://www.ps4iso.net/need-for-speed-payback-eur.html",
        "titulo": "Need for Speed Payback [v1.08] (EUR)",
        "thumb": ""
    },
    {
        "link": "http://www.ps4iso.net/assassins-creed-origins-eur.html",
        "titulo": "Assassin’s Creed Origins + DLC + Language Pack (EUR)",
        "thumb": ""
    },
    {
        "link": "http://www.ps4iso.net/horizon-zero-dawn-complete-edition-usa.html",
        "titulo": "Horizon Zero Dawn: Complete Edition (USA)",
        "thumb": ""
    },
    {
        "link": "http://www.ps4iso.net/god-of-war-iii-remastered-eur.html",
        "titulo": "God of War III Remastered (EUR)",
        "thumb": ""
    },
    {
        "link": "http://www.ps4iso.net/crash-bandicoot-n-sane-trilogy-eur.html",
        "titulo": "Crash Bandicoot N Sane Trilogy + DLC (EUR)",
        "thumb": ""
    },
    {
        "link": "http://www.ps4iso.net/the-amazing-spider-man-2-usa.html",
        "titulo": "The Amazing Spider-Man 2 (USA)",
        "thumb": ""
    },
    {
        "link": "http://www.ps4iso.net/uncharted-4-a-thiefs-end-usa.html",
        "titulo": "Uncharted 4: A Thief’s End (USA)",
        "thumb": ""
    },
    {
        "link": "http://www.ps4iso.net/the-last-of-us-remastered-eur.html",
        "titulo": "The Last of Us Remastered (EUR)",
        "thumb": ""
    },
    {
        "link": "http://www.ps4iso.net/horizon-zero-dawn-eur.html",
        "titulo": "Horizon Zero Dawn (EUR)",
        "thumb": ""
    },
    {
        "link": "http://www.ps4iso.net/the-witcher-3-wild-hunt-game-of-the-year-edition-eur.html",
        "titulo": "The Witcher 3: Wild Hunt – Game of the Year Edition (EUR)",
        "thumb": ""
    },
    {
        "link": "http://www.ps4iso.net/tekken-7-usa.html",
        "titulo": "Tekken 7 (USA)",
        "thumb": ""
    },
    {
        "link": "http://www.ps4iso.net/bloodborne-game-of-the-year-edition-eur.html",
        "titulo": "Bloodborne: Game of the Year Edition (EUR)",
        "thumb": ""
    },
    {
        "link": "http://www.ps4iso.net/minecraft-playstation-4-edition-eur.html",
        "titulo": "Minecraft: PlayStation 4 Edition + DLC (EUR)",
        "thumb": ""
    },
    {
        "link": "http://www.ps4iso.net/call-of-duty-wwii-eur.html",
        "titulo": "Call of Duty: WWII (EUR)",
        "thumb": ""
    },
    {
        "link": "http://www.ps4iso.net/final-fantasy-xv-eur.html",
        "titulo": "Final Fantasy XV (EUR)",
        "thumb": ""
    },
    {
        "link": "http://www.ps4iso.net/sonic-mania-eur.html",
        "titulo": "Sonic Mania (EUR)",
        "thumb": ""
    },
    {
        "link": "http://www.ps4iso.net/grand-theft-auto-v-eur.html",
        "titulo": "Grand Theft Auto V (EUR)",
        "thumb": ""
    },
    {
        "link": "http://www.ps4iso.net/plants-vs-zombies-garden-warfare-2-eur.html",
        "titulo": "Plants vs Zombies: Garden Warfare 2 (EUR)",
        "thumb": ""
    },
    {
        "link": "http://www.ps4iso.net/sd-gundam-g-generation-genesis-english-asia.html",
        "titulo": "SD Gundam G Generation Genesis (English) (Asia)",
        "thumb": ""
    },
    {
        "link": "http://www.ps4iso.net/fifa-18-eur.html",
        "titulo": "FIFA 18 (EUR)",
        "thumb": ""
    },
    {
        "link": "http://www.ps4iso.net/uncharted-the-nathan-drake-collection-eur.html",
        "titulo": "Uncharted: The Nathan Drake Collection (EUR)",
        "thumb": ""
    },
    {
        "link": "http://www.ps4iso.net/persona-5-usa.html",
        "titulo": "Persona 5 (USA)",
        "thumb": ""
    },
    {
        "link": "http://www.ps4iso.net/far-cry-5-eur.html",
        "titulo": "Far Cry 5 (EUR)",
        "thumb": ""
    },
    {
        "link": "http://www.ps4iso.net/wwe-2k18-usa.html",
        "titulo": "WWE 2K18 (USA)",
        "thumb": ""
    },
    {
        "link": "http://www.ps4iso.net/naruto-shippuden-ultimate-ninja-storm-4-eur.html",
        "titulo": "Naruto Shippuden: Ultimate Ninja Storm 4 (EUR)",
        "thumb": ""
    },
    {
        "link": "http://www.ps4iso.net/call-of-duty-black-ops-iii-eur.html",
        "titulo": "Call of Duty: Black Ops III (EUR)",
        "thumb": ""
    },
    {
        "link": "http://www.ps4iso.net/infamous-second-son-usa.html",
        "titulo": "inFamous: Second Son (USA)",
        "thumb": ""
    },
    {
        "link": "http://www.ps4iso.net/tom-clancys-ghost-recon-wildlands-eur.html",
        "titulo": "Tom Clancy’s Ghost Recon: Wildlands (EUR)",
        "thumb": ""
    },
    {
        "link": "http://www.ps4iso.net/metal-slug-anthology-eur.html",
        "titulo": "Metal Slug Anthology (EUR)",
        "thumb": ""
    },
    {
        "link": "http://www.ps4iso.net/batman-arkham-knight-eur.html",
        "titulo": "Batman: Arkham Knight (EUR)",
        "thumb": ""
    },
    {
        "link": "http://www.ps4iso.net/the-crew-eur.html",
        "titulo": "The Crew (EUR)",
        "thumb": ""
    },
    {
        "link": "http://www.ps4iso.net/dragon-ball-xenoverse-2-eur.html",
        "titulo": "Dragon Ball: Xenoverse 2 (EUR)",
        "thumb": ""
    },
    {
        "link": "http://www.ps4iso.net/watch-dogs-2-eur.html",
        "titulo": "Watch Dogs 2 (EUR)",
        "thumb": ""
    },
    {
        "link": "http://www.ps4iso.net/fifa-18-usa.html",
        "titulo": "FIFA 18 (USA)",
        "thumb": ""
    },
    {
        "link": "http://www.ps4iso.net/rise-of-the-tomb-raider-20-year-celebration-eur.html",
        "titulo": "Rise of the Tomb Raider: 20 Year Celebration (EUR)",
        "thumb": ""
    },
    {
        "link": "http://www.ps4iso.net/the-last-guardian-eur.html",
        "titulo": "The Last Guardian (EUR)",
        "thumb": ""
    },
    {
        "link": "http://www.ps4iso.net/mortal-kombat-xl-eur.html",
        "titulo": "Mortal Kombat XL (EUR)",
        "thumb": ""
    },
    {
        "link": "http://www.ps4iso.net/grand-theft-auto-v-usa.html",
        "titulo": "Grand Theft Auto V (USA)",
        "thumb": ""
    },
    {
        "link": "http://www.ps4iso.net/steep-eur.html",
        "titulo": "Steep (EUR)",
        "thumb": ""
    },
    {
        "link": "http://www.ps4iso.net/uncharted-the-lost-legacy-eur.html",
        "titulo": "Uncharted: The Lost Legacy (EUR)",
        "thumb": ""
    },
    {
        "link": "http://www.ps4iso.net/resident-evil-7-biohazard-eur.html",
        "titulo": "Resident Evil 7: biohazard (EUR)",
        "thumb": ""
    },
    {
        "link": "http://www.ps4iso.net/gran-turismo-sport-eur.html",
        "titulo": "Gran Turismo Sport (EUR)",
        "thumb": ""
    },
    {
        "link": "http://www.ps4iso.net/nier-automata-usa.html",
        "titulo": "NieR: Automata (USA)",
        "thumb": ""
    },
    {
        "link": "http://www.ps4iso.net/ratchet-clank-eur.html",
        "titulo": "Ratchet & Clank (EUR)",
        "thumb": ""
    },
    {
        "link": "http://www.ps4iso.net/street-fighter-v-usa.html",
        "titulo": "Street Fighter V (USA)",
        "thumb": ""
    },
    {
        "link": "http://www.ps4iso.net/dragon-ball-z-budokai-3-usa.html",
        "titulo": "Dragon Ball Z: Budokai 3 (USA)",
        "thumb": ""
    },
    {
        "link": "http://www.ps4iso.net/the-last-of-us-remastered-jpn.html",
        "titulo": "The Last of Us Remastered (JPN)",
        "thumb": ""
    },
    {
        "link": "http://www.ps4iso.net/naruto-shippuden-ultimate-ninja-storm-4-road-to-boruto-eur.html",
        "titulo": "Naruto Shippuden Ultimate Ninja Storm 4 Road to Boruto (EUR)",
        "thumb": ""
    },
    {
        "link": "http://www.ps4iso.net/rocket-league-collectors-edition-eur.html",
        "titulo": "Rocket League (Collector’s Edition) (EUR)",
        "thumb": ""
    },
    {
        "link": "http://www.ps4iso.net/far-cry-primal-eur.html",
        "titulo": "Far Cry Primal (EUR)",
        "thumb": ""
    },
    {
        "link": "http://www.ps4iso.net/pro-evolution-soccer-2018-eur.html",
        "titulo": "Pro Evolution Soccer 2018 (EUR)",
        "thumb": ""
    },
    {
        "link": "http://www.ps4iso.net/yakuza-6-the-song-of-life-asia.html",
        "titulo": "Yakuza 6: The Song of Life (Asia)",
        "thumb": ""
    },
    {
        "link": "http://www.ps4iso.net/monster-hunter-world-usa.html",
        "titulo": "Monster Hunter World (USA)",
        "thumb": ""
    },
    {
        "link": "http://www.ps4iso.net/resident-evil-7-biohazard-gold-edition-usa.html",
        "titulo": "Resident Evil 7: biohazard Gold Edition (USA)",
        "thumb": ""
    },
    {
        "link": "http://www.ps4iso.net/fifa-street-2-eur.html",
        "titulo": "FIFA Street 2 (EUR)",
        "thumb": ""
    },
    {
        "link": "http://www.ps4iso.net/until-dawn-eur.html",
        "titulo": "Until Dawn (EUR)",
        "thumb": ""
    },
    {
        "link": "http://www.ps4iso.net/digimon-story-cyber-sleuth-usa.html",
        "titulo": "Digimon Story Cyber Sleuth (USA)",
        "thumb": ""
    },
    {
        "link": "http://www.ps4iso.net/kingdom-hearts-hd-i-5-ii-5-remix-eur.html",
        "titulo": "Kingdom Hearts HD I.5 + II.5 Remix (EUR)",
        "thumb": ""
    },
    {
        "link": "http://www.ps4iso.net/the-order-1886-eur.html",
        "titulo": "The Order 1886 (EUR)",
        "thumb": ""
    },
    {
        "link": "http://www.ps4iso.net/dragon-ball-fighterz-dlc-eur.html",
        "titulo": "Dragon Ball FighterZ + DLC (EUR)",
        "thumb": ""
    },
    {
        "link": "http://www.ps4iso.net/resident-evil-4-eur.html",
        "titulo": "Resident Evil 4 (EUR)",
        "thumb": ""
    },
    {
        "link": "http://www.ps4iso.net/overcooked-eur.html",
        "titulo": "Overcooked (EUR)",
        "thumb": ""
    },
    {
        "link": "http://www.ps4iso.net/outlast-trinity-eur.html",
        "titulo": "Outlast Trinity (EUR)",
        "thumb": ""
    },
    {
        "link": "http://www.ps4iso.net/p-t-silent-hills-demo-usa.html",
        "titulo": "P.T. Silent Hills Demo (USA)",
        "thumb": ""
    },
    {
        "link": "http://www.ps4iso.net/marvel-vs-capcom-infinite-dlc-usa.html",
        "titulo": "Marvel vs Capcom Infinite + DLC (USA)",
        "thumb": ""
    },
    {
        "link": "http://www.ps4iso.net/bully-usa.html",
        "titulo": "Bully (USA)",
        "thumb": ""
    },
    {
        "link": "http://www.ps4iso.net/super-robot-wars-v-asia.html",
        "titulo": "Super Robot Wars V (Asia)",
        "thumb": ""
    },
    {
        "link": "http://www.ps4iso.net/dragon-quest-xi-sugi-sarishi-toki-o-motomete-jpn.html",
        "titulo": "Dragon Quest XI: Sugi Sarishi Toki o Motomete (JPN)",
        "thumb": ""
    },
    {
        "link": "http://www.ps4iso.net/yakuza-0-usa.html",
        "titulo": "Yakuza 0 (USA)",
        "thumb": ""
    },
    {
        "link": "http://www.ps4iso.net/resident-evil-5-usa.html",
        "titulo": "Resident Evil 5 (USA)",
        "thumb": ""
    },
    {
        "link": "http://www.ps4iso.net/need-for-speed-payback-deluxe-edition-eur.html",
        "titulo": "Need for Speed Payback (Deluxe Edition) (EUR)",
        "thumb": ""
    },
    {
        "link": "http://www.ps4iso.net/battlefield-1-usa.html",
        "titulo": "Battlefield 1 (USA)",
        "thumb": ""
    },
    {
        "link": "http://www.ps4iso.net/shadow-of-the-colossus-eur.html",
        "titulo": "Shadow of the Colossus (EUR)",
        "thumb": ""
    },
    {
        "link": "http://www.ps4iso.net/dragon-ball-fighterz-eur.html",
        "titulo": "Dragon Ball FighterZ (EUR)",
        "thumb": ""
    },
    {
        "link": "http://www.ps4iso.net/a-way-out-eur.html",
        "titulo": "A Way Out (EUR)",
        "thumb": ""
    },
    {
        "link": "http://www.ps4iso.net/wwe-2k18-eur.html",
        "titulo": "WWE 2K18 (EUR)",
        "thumb": ""
    },
    {
        "link": "http://www.ps4iso.net/ea-sports-ufc-3-eur.html",
        "titulo": "EA Sports UFC 3 (EUR)",
        "thumb": ""
    },
    {
        "link": "http://www.ps4iso.net/playstation-vr-worlds-eur.html",
        "titulo": "PlayStation VR WORLDS (EUR)",
        "thumb": ""
    },
    {
        "link": "http://www.ps4iso.net/digimon-world-next-order-eur.html",
        "titulo": "Digimon World: Next Order (EUR)",
        "thumb": ""
    },
    {
        "link": "http://www.ps4iso.net/need-for-speed-eur.html",
        "titulo": "Need for Speed (EUR)",
        "thumb": ""
    },
    {
        "link": "http://www.ps4iso.net/hitman-the-complete-first-season-eur.html",
        "titulo": "Hitman: The Complete First Season (EUR)",
        "thumb": ""
    },
    {
        "link": "http://www.ps4iso.net/ea-sports-ufc-2-usa.html",
        "titulo": "EA Sports UFC 2 (USA)",
        "thumb": ""
    },
    {
        "link": "http://www.ps4iso.net/heavy-rain-eur.html",
        "titulo": "Heavy Rain (EUR)",
        "thumb": ""
    },
    {
        "link": "http://www.ps4iso.net/tom-clancys-ghost-recon-wildlands-gold-edition-eur.html",
        "titulo": "Tom Clancy’s Ghost Recon: Wildlands (Gold Edition) (EUR)",
        "thumb": ""
    },
    {
        "link": "http://www.ps4iso.net/crash-tag-team-racing-usa.html",
        "titulo": "Crash Tag Team Racing (USA)",
        "thumb": ""
    },
    {
        "link": "http://www.ps4iso.net/gundam-breaker-3-jpn.html",
        "titulo": "Gundam Breaker 3 (JPN)",
        "thumb": ""
    },
    {
        "link": "http://www.ps4iso.net/need-for-speed-deluxe-edition-eur.html",
        "titulo": "Need for Speed (Deluxe Edition) (EUR)",
        "thumb": ""
    },
    {
        "link": "http://www.ps4iso.net/journey-collectors-edition-eur.html",
        "titulo": "Journey Collector’s Edition (EUR)",
        "thumb": ""
    },
    {
        "link": "http://www.ps4iso.net/the-witcher-3-wild-hunt-complete-edition-usa.html",
        "titulo": "The Witcher 3: Wild Hunt – Complete Edition (USA)",
        "thumb": ""
    },
    {
        "link": "http://www.ps4iso.net/nba-2k18-usa.html",
        "titulo": "NBA 2K18 (USA)",
        "thumb": ""
    },
    {
        "link": "http://www.ps4iso.net/prototype-biohazard-bundle-usa.html",
        "titulo": "Prototype Biohazard Bundle (USA)",
        "thumb": ""
    },
    {
        "link": "http://www.ps4iso.net/the-evil-within-2-eur.html",
        "titulo": "The Evil Within 2 + The Last Chance Pack DLC (EUR)",
        "thumb": ""
    },
    {
        "link": "http://www.ps4iso.net/resident-evil-origins-collection-eur.html",
        "titulo": "Resident Evil: Origins Collection (EUR)",
        "thumb": ""
    },
    {
        "link": "http://www.ps4iso.net/call-of-duty-infinite-warfare-eur.html",
        "titulo": "Call of Duty: Infinite Warfare (EUR)",
        "thumb": ""
    },
    {
        "link": "http://www.ps4iso.net/spider-man-homecoming-virtual-reality-experience-eur.html",
        "titulo": "Spider-Man: Homecoming – Virtual Reality Experience (EUR)",
        "thumb": ""
    },
    {
        "link": "http://www.ps4iso.net/unravel-eur.html",
        "titulo": "Unravel (EUR)",
        "thumb": ""
    },
    {
        "link": "http://www.ps4iso.net/gran-turismo-sport-usa.html",
        "titulo": "Gran Turismo Sport (USA)",
        "thumb": ""
    },
    {
        "link": "http://www.ps4iso.net/grand-theft-auto-san-andreas-usa.html",
        "titulo": "Grand Theft Auto: San Andreas (USA)",
        "thumb": ""
    },
    {
        "link": "http://www.ps4iso.net/resident-evil-eur.html",
        "titulo": "Resident Evil (EUR)",
        "thumb": ""
    },
    {
        "link": "http://www.ps4iso.net/mafia-iii-eur.html",
        "titulo": "Mafia III (EUR)",
        "thumb": ""
    },
    {
        "link": "http://www.ps4iso.net/yakuza-kiwami-eur.html",
        "titulo": "Yakuza Kiwami (EUR)",
        "thumb": ""
    },
    {
        "link": "http://www.ps4iso.net/middle-earth-shadow-of-mordor-game-of-the-year-edition-eur.html",
        "titulo": "Middle-earth: Shadow of Mordor – Game of the Year Edition (EUR)",
        "thumb": ""
    },
    {
        "link": "http://www.ps4iso.net/assassins-creed-syndicate-eur.html",
        "titulo": "Assassin’s Creed Syndicate (EUR)",
        "thumb": ""
    },
    {
        "link": "http://www.ps4iso.net/jojos-bizarre-adventure-eyes-of-heaven-eur.html",
        "titulo": "JoJo’s Bizarre Adventure: Eyes of Heaven (EUR)",
        "thumb": ""
    },
    {
        "link": "http://www.ps4iso.net/call-of-duty-ghosts-eur.html",
        "titulo": "Call of Duty: Ghosts (EUR)",
        "thumb": ""
    },
    {
        "link": "http://www.ps4iso.net/tomb-raider-definitive-edition-eur.html",
        "titulo": "Tomb Raider: Definitive Edition (EUR)",
        "thumb": ""
    },
    {
        "link": "http://www.ps4iso.net/god-of-war-spanish-eur.html",
        "titulo": "God of War [Spanish] (EUR)",
        "thumb": ""
    },
    {
        "link": "http://www.ps4iso.net/mortal-kombat-shaolin-monks-usa.html",
        "titulo": "Mortal Kombat: Shaolin Monks (USA)",
        "thumb": ""
    },
    {
        "link": "http://www.ps4iso.net/inside-eur.html",
        "titulo": "INSIDE (EUR)",
        "thumb": ""
    },
    {
        "link": "http://www.ps4iso.net/assassins-creed-unity-eur.html",
        "titulo": "Assassin’s Creed Unity (EUR)",
        "thumb": ""
    },
    {
        "link": "http://www.ps4iso.net/infamous-first-light-eur.html",
        "titulo": "inFamous: First Light (EUR)",
        "thumb": ""
    },
    {
        "link": "http://www.ps4iso.net/littlebigplanet-3-eur.html",
        "titulo": "LittleBigPlanet 3 (EUR)",
        "thumb": ""
    },
    {
        "link": "http://www.ps4iso.net/driveclub-eur.html",
        "titulo": "Driveclub (EUR)",
        "thumb": ""
    },
    {
        "link": "http://www.ps4iso.net/grand-theft-auto-v-jpn.html",
        "titulo": "Grand Theft Auto V (JPN)",
        "thumb": ""
    },
    {
        "link": "http://www.ps4iso.net/gravity-rush-2-eur.html",
        "titulo": "Gravity Rush 2 (EUR)",
        "thumb": ""
    },
    {
        "link": "http://www.ps4iso.net/little-nightmares-eur.html",
        "titulo": "Little Nightmares + DLC (EUR)",
        "thumb": ""
    },
    {
        "link": "http://www.ps4iso.net/don-bradman-cricket-17-eur.html",
        "titulo": "Don Bradman Cricket 17 (EUR)",
        "thumb": ""
    },
    {
        "link": "http://www.ps4iso.net/star-wars-battlefront-ii-eur.html",
        "titulo": "Star Wars Battlefront II (EUR)",
        "thumb": ""
    },
    {
        "link": "http://www.ps4iso.net/nioh-complete-edition-usa.html",
        "titulo": "Nioh: Complete Edition (USA)",
        "thumb": ""
    },
    {
        "link": "http://www.ps4iso.net/dark-souls-iii-the-fire-fades-edition-game-of-the-year-edition-eur.html",
        "titulo": "Dark Souls III: The Fire Fades Edition (Game of the Year Edition) (EUR)",
        "thumb": ""
    },
    {
        "link": "http://www.ps4iso.net/doom-eur.html",
        "titulo": "DOOM (EUR)",
        "thumb": ""
    },
    {
        "link": "http://www.ps4iso.net/beyond-two-souls-eur.html",
        "titulo": "Beyond: Two Souls (EUR)",
        "thumb": ""
    },
    {
        "link": "http://www.ps4iso.net/dead-or-alive-5-last-round-eur.html",
        "titulo": "Dead or Alive 5: Last Round (EUR)",
        "thumb": ""
    },
    {
        "link": "http://www.ps4iso.net/injustice-2-legendary-edition-eur.html",
        "titulo": "Injustice 2: Legendary Edition (EUR)",
        "thumb": ""
    },
    {
        "link": "http://www.ps4iso.net/hitman-game-of-the-year-edition-usa.html",
        "titulo": "Hitman: Game of the Year Edition (USA)",
        "thumb": ""
    },
    {
        "link": "http://www.ps4iso.net/final-fantasy-xii-the-zodiac-age-eur.html",
        "titulo": "Final Fantasy XII: The Zodiac Age (EUR)",
        "thumb": ""
    },
    {
        "link": "http://www.ps4iso.net/call-of-duty-modern-warfare-remastered-usa.html",
        "titulo": "Call of Duty: Modern Warfare Remastered (USA)",
        "thumb": ""
    },
    {
        "link": "http://www.ps4iso.net/wipeout-omega-collection-eur.html",
        "titulo": "Wipeout: Omega Collection (EUR)",
        "thumb": ""
    },
    {
        "link": "http://www.ps4iso.net/everybodys-golf-eur.html",
        "titulo": "Everybody’s Golf (EUR)",
        "thumb": ""
    },
    {
        "link": "http://www.ps4iso.net/sniper-elite-4-eur.html",
        "titulo": "Sniper Elite 4 (EUR)",
        "thumb": ""
    },
    {
        "link": "http://www.ps4iso.net/the-king-of-fighters-xiv-usa.html",
        "titulo": "The King of Fighters XIV (USA)",
        "thumb": ""
    },
    {
        "link": "http://www.ps4iso.net/injustice-2-eur.html",
        "titulo": "Injustice 2 (EUR)",
        "thumb": ""
    },
    {
        "link": "http://www.ps4iso.net/uncharted-the-nathan-drake-collection-usa.html",
        "titulo": "Uncharted: The Nathan Drake Collection (USA)",
        "thumb": ""
    },
    {
        "link": "http://www.ps4iso.net/ark-survival-evolved-eur.html",
        "titulo": "ARK: Survival Evolved (EUR)",
        "thumb": ""
    },
    {
        "link": "http://www.ps4iso.net/mega-man-legacy-collection-eur.html",
        "titulo": "Mega Man Legacy Collection (EUR)",
        "thumb": ""
    },
    {
        "link": "http://www.ps4iso.net/nier-automata-eur.html",
        "titulo": "NieR: Automata (EUR)",
        "thumb": ""
    },
    {
        "link": "http://www.ps4iso.net/fifa-17-eur.html",
        "titulo": "FIFA 17 (EUR)",
        "thumb": ""
    },
    {
        "link": "http://www.ps4iso.net/borderlands-the-handsome-collection-eur.html",
        "titulo": "Borderlands: The Handsome Collection (EUR)",
        "thumb": ""
    },
    {
        "link": "http://www.ps4iso.net/until-dawn-rush-of-blood-usa.html",
        "titulo": "Until Dawn: Rush of Blood (USA)",
        "thumb": ""
    },
    {
        "link": "http://www.ps4iso.net/j-stars-victory-vs-usa.html",
        "titulo": "J-Stars Victory Vs+ (USA)",
        "thumb": ""
    },
    {
        "link": "http://www.ps4iso.net/killzone-shadow-fall-usa.html",
        "titulo": "Killzone: Shadow Fall (USA)",
        "thumb": ""
    },
    {
        "link": "http://www.ps4iso.net/diablo-iii-ultimate-evil-edition-eur.html",
        "titulo": "Diablo III: Ultimate Evil Edition (EUR)",
        "thumb": ""
    },
    {
        "link": "http://www.ps4iso.net/castlevania-lament-of-innocence-usa.html",
        "titulo": "Castlevania: Lament of Innocence (USA)",
        "thumb": ""
    },
    {
        "link": "http://www.ps4iso.net/dirt-4-eur.html",
        "titulo": "DiRT 4 (EUR)",
        "thumb": ""
    },
    {
        "link": "http://www.ps4iso.net/yakuza-6-the-song-of-life-eur.html",
        "titulo": "Yakuza 6: The Song of Life (EUR)",
        "thumb": ""
    },
    {
        "link": "http://www.ps4iso.net/puyo-puyo-tetris-eur.html",
        "titulo": "Puyo Puyo Tetris (EUR)",
        "thumb": ""
    },
    {
        "link": "http://www.ps4iso.net/no-mans-sky-eur.html",
        "titulo": "No Man’s Sky (EUR)",
        "thumb": ""
    },
    {
        "link": "http://www.ps4iso.net/metal-gear-solid-v-the-phantom-pain-eur.html",
        "titulo": "Metal Gear Solid V: The Phantom Pain (EUR)",
        "thumb": ""
    },
    {
        "link": "http://www.ps4iso.net/one-piece-burning-blood-eur.html",
        "titulo": "One Piece: Burning Blood (EUR)",
        "thumb": ""
    },
    {
        "link": "http://www.ps4iso.net/hatsune-miku-project-diva-x-usa.html",
        "titulo": "Hatsune Miku: Project Diva X (USA)",
        "thumb": ""
    },
    {
        "link": "http://www.ps4iso.net/devil-may-cry-4-special-edition-eur.html",
        "titulo": "Devil May Cry 4: Special Edition (EUR)",
        "thumb": ""
    },
    {
        "link": "http://www.ps4iso.net/wwe-2k17-eur.html",
        "titulo": "WWE 2K17 (EUR)",
        "thumb": ""
    },
    {
        "link": "http://www.ps4iso.net/dying-light-eur.html",
        "titulo": "Dying Light (EUR)",
        "thumb": ""
    },
    {
        "link": "http://www.ps4iso.net/gundam-versus-eur.html",
        "titulo": "Gundam Versus + DLC (EUR)",
        "thumb": ""
    },
    {
        "link": "http://www.ps4iso.net/the-evil-within-eur.html",
        "titulo": "The Evil Within (EUR)",
        "thumb": ""
    },
    {
        "link": "http://www.ps4iso.net/nioh-usa.html",
        "titulo": "Nioh (USA)",
        "thumb": ""
    },
    {
        "link": "http://www.ps4iso.net/monopoly-family-fun-pack-eur.html",
        "titulo": "Monopoly: Family Fun Pack (EUR)",
        "thumb": ""
    },
    {
        "link": "http://www.ps4iso.net/assassins-creed-the-ezio-collection-eur.html",
        "titulo": "Assassin’s Creed: The Ezio Collection (EUR)",
        "thumb": ""
    },
    {
        "link": "http://www.ps4iso.net/madden-nfl-18-usa.html",
        "titulo": "Madden NFL 18 (USA)",
        "thumb": ""
    },
    {
        "link": "http://www.ps4iso.net/kingdom-hearts-hd-2-8-final-chapter-prologue-eur.html",
        "titulo": "Kingdom Hearts HD 2.8 Final Chapter Prologue (EUR)",
        "thumb": ""
    },
    {
        "link": "http://www.ps4iso.net/dragon-ball-z-budokai-tenkaichi-3-usa.html",
        "titulo": "Dragon Ball Z: Budokai Tenkaichi 3 (USA)",
        "thumb": ""
    },
    {
        "link": "http://www.ps4iso.net/dirt-rally-vr-dlc-eur.html",
        "titulo": "DiRT Rally VR + DLC (EUR)",
        "thumb": ""
    },
    {
        "link": "http://www.ps4iso.net/stardew-valley-usa.html",
        "titulo": "Stardew Valley (USA)",
        "thumb": ""
    },
    {
        "link": "http://www.ps4iso.net/hotline-miami-eur.html",
        "titulo": "Hotline Miami (EUR)",
        "thumb": ""
    },
    {
        "link": "http://www.ps4iso.net/far-cry-4-eur.html",
        "titulo": "Far Cry 4 (EUR)",
        "thumb": ""
    },
    {
        "link": "http://www.ps4iso.net/gravity-rush-remastered-eur.html",
        "titulo": "Gravity Rush Remastered (EUR)",
        "thumb": ""
    },
    {
        "link": "http://www.ps4iso.net/the-elder-scrolls-v-skyrim-special-edition-usa.html",
        "titulo": "The Elder Scrolls V: Skyrim Special Edition (USA)",
        "thumb": ""
    },
    {
        "link": "http://www.ps4iso.net/street-fighter-30th-anniversary-collection-eur.html",
        "titulo": "Street Fighter: 30th Anniversary Collection (EUR)",
        "thumb": ""
    },
    {
        "link": "http://www.ps4iso.net/fez-eur.html",
        "titulo": "Fez (EUR)",
        "thumb": ""
    },
    {
        "link": "http://www.ps4iso.net/terraria-eur.html",
        "titulo": "Terraria (EUR)",
        "thumb": ""
    },
    {
        "link": "http://www.ps4iso.net/shadow-of-the-beast-eur.html",
        "titulo": "Shadow of the Beast (EUR)",
        "thumb": ""
    },
    {
        "link": "http://www.ps4iso.net/yu-gi-oh-legacy-of-the-duelist-eur.html",
        "titulo": "Yu-Gi-Oh! Legacy of the Duelist (EUR)",
        "thumb": ""
    },
    {
        "link": "http://www.ps4iso.net/dishonored-2-eur.html",
        "titulo": "Dishonored 2 (EUR)",
        "thumb": ""
    },
    {
        "link": "http://www.ps4iso.net/tales-of-berseria-eur.html",
        "titulo": "Tales of Berseria (EUR)",
        "thumb": ""
    },
    {
        "link": "http://www.ps4iso.net/lego-worlds-eur.html",
        "titulo": "LEGO Worlds (EUR)",
        "thumb": ""
    },
    {
        "link": "http://www.ps4iso.net/just-cause-3-xl-edition-eur.html",
        "titulo": "Just Cause 3: XL Edition (EUR)",
        "thumb": ""
    },
    {
        "link": "http://www.ps4iso.net/odin-sphere-leifthrasir-eur.html",
        "titulo": "Odin Sphere Leifthrasir (EUR)",
        "thumb": ""
    },
    {
        "link": "http://www.ps4iso.net/batman-return-to-arkham-eur.html",
        "titulo": "Batman: Return to Arkham (EUR)",
        "thumb": ""
    },
    {
        "link": "http://www.ps4iso.net/f1-2017-eur.html",
        "titulo": "F1 2017 (EUR)",
        "thumb": ""
    },
    {
        "link": "http://www.ps4iso.net/disgaea-5-alliance-of-vengeance-eur.html",
        "titulo": "Disgaea 5 Alliance of Vengeance (EUR)",
        "thumb": ""
    },
    {
        "link": "http://www.ps4iso.net/need-for-speed-rivals-eur.html",
        "titulo": "Need for Speed: Rivals (EUR)",
        "thumb": ""
    },
    {
        "link": "http://www.ps4iso.net/attack-on-titan-wings-of-freedom-eur.html",
        "titulo": "Attack on Titan: Wings of Freedom (EUR)",
        "thumb": ""
    },
    {
        "link": "http://www.ps4iso.net/metal-gear-survive-usa.html",
        "titulo": "Metal Gear Survive (USA)",
        "thumb": ""
    },
    {
        "link": "http://www.ps4iso.net/dissidia-final-fantasy-nt-usa.html",
        "titulo": "Dissidia: Final Fantasy NT (USA)",
        "thumb": ""
    },
    {
        "link": "http://www.ps4iso.net/assassins-creed-iv-black-flag-eur.html",
        "titulo": "Assassin’s Creed IV: Black Flag (EUR)",
        "thumb": ""
    },
    {
        "link": "http://www.ps4iso.net/sniper-ghost-warrior-3-eur.html",
        "titulo": "Sniper: Ghost Warrior 3 (EUR)",
        "thumb": ""
    },
    {
        "link": "http://www.ps4iso.net/hellblade-senuas-sacrifice-eur.html",
        "titulo": "Hellblade: Senua’s Sacrifice (EUR)",
        "thumb": ""
    },
    {
        "link": "http://www.ps4iso.net/mlb-the-show-18-usa.html",
        "titulo": "MLB The Show 18 (USA)",
        "thumb": ""
    },
    {
        "link": "http://www.ps4iso.net/pro-evolution-soccer-2017-eur.html",
        "titulo": "Pro Evolution Soccer 2017 (EUR)",
        "thumb": ""
    },
    {
        "link": "http://www.ps4iso.net/7-days-to-die-eur.html",
        "titulo": "7 Days to Die (EUR)",
        "thumb": ""
    },
    {
        "link": "http://www.ps4iso.net/friday-the-13th-the-game-eur.html",
        "titulo": "Friday the 13th: The Game (EUR)",
        "thumb": ""
    },
    {
        "link": "http://www.ps4iso.net/battlefield-4-eur.html",
        "titulo": "Battlefield 4 (EUR)",
        "thumb": ""
    },
    {
        "link": "http://www.ps4iso.net/dragon-ball-xenoverse-jpn.html",
        "titulo": "Dragon Ball: Xenoverse (JPN)",
        "thumb": ""
    },
    {
        "link": "http://www.ps4iso.net/motogp-17-eur.html",
        "titulo": "MotoGP 17 (EUR)",
        "thumb": ""
    },
    {
        "link": "http://www.ps4iso.net/extinction-eur.html",
        "titulo": "Extinction (EUR)",
        "thumb": ""
    },
    {
        "link": "http://www.ps4iso.net/sword-art-online-hollow-realization-eur.html",
        "titulo": "Sword Art Online: Hollow Realization (EUR)",
        "thumb": ""
    },
    {
        "link": "http://www.ps4iso.net/wolfenstein-ii-the-new-colossus-eur.html",
        "titulo": "Wolfenstein II: The New Colossus (EUR)",
        "thumb": ""
    },
    {
        "link": "http://www.ps4iso.net/saint-seiya-soldiers-soul-eur.html",
        "titulo": "Saint Seiya: Soldiers’ Soul (EUR)",
        "thumb": ""
    },
    {
        "link": "http://www.ps4iso.net/tom-clancys-rainbow-six-siege-usa.html",
        "titulo": "Tom Clancy’s Rainbow Six Siege (USA)",
        "thumb": ""
    },
    {
        "link": "http://www.ps4iso.net/dragon-quest-builders-eur.html",
        "titulo": "Dragon Quest Builders (EUR)",
        "thumb": ""
    },
    {
        "link": "http://www.ps4iso.net/firewatch-eur.html",
        "titulo": "Firewatch (EUR)",
        "thumb": ""
    },
    {
        "link": "http://www.ps4iso.net/just-dance-2018-eur.html",
        "titulo": "Just Dance 2018 (EUR)",
        "thumb": ""
    },
    {
        "link": "http://www.ps4iso.net/alienation-eur.html",
        "titulo": "Alienation (EUR)",
        "thumb": ""
    },
    {
        "link": "http://www.ps4iso.net/destiny-2-eur.html",
        "titulo": "Destiny 2 (EUR)",
        "thumb": ""
    },
    {
        "link": "http://www.ps4iso.net/disney-infinity-3-0-edition-eur.html",
        "titulo": "Disney Infinity 3.0 Edition (EUR)",
        "thumb": ""
    },
    {
        "link": "http://www.ps4iso.net/sonic-forces-eur.html",
        "titulo": "Sonic Forces (EUR)",
        "thumb": ""
    },
    {
        "link": "http://www.ps4iso.net/assetto-corsa-eur.html",
        "titulo": "Assetto Corsa (EUR)",
        "thumb": ""
    },
    {
        "link": "http://www.ps4iso.net/overwatch-origins-edition-eur.html",
        "titulo": "Overwatch (Origins Edition) (EUR)",
        "thumb": ""
    },
    {
        "link": "http://www.ps4iso.net/the-walking-dead-collection-eur.html",
        "titulo": "The Walking Dead Collection (EUR)",
        "thumb": ""
    },
    {
        "link": "http://www.ps4iso.net/patapon-remastered-eur.html",
        "titulo": "Patapon Remastered (EUR)",
        "thumb": ""
    },
    {
        "link": "http://www.ps4iso.net/resident-evil-6-eur.html",
        "titulo": "Resident Evil 6 (EUR)",
        "thumb": ""
    },
    {
        "link": "http://www.ps4iso.net/micro-machines-world-series-eur.html",
        "titulo": "Micro Machines World Series (EUR)",
        "thumb": ""
    },
    {
        "link": "http://www.ps4iso.net/mad-max-dlc-usa.html",
        "titulo": "Mad Max + DLC (USA)",
        "thumb": ""
    },
    {
        "link": "http://www.ps4iso.net/the-pinball-arcade-eur.html",
        "titulo": "The Pinball Arcade (EUR)",
        "thumb": ""
    },
    {
        "link": "http://www.ps4iso.net/lara-croft-and-the-temple-of-osiris-eur.html",
        "titulo": "Lara Croft and the Temple of Osiris (EUR)",
        "thumb": ""
    },
    {
        "link": "http://www.ps4iso.net/bioshock-the-collection-eur.html",
        "titulo": "BioShock: The Collection (EUR)",
        "thumb": ""
    },
    {
        "link": "http://www.ps4iso.net/deadpool-eur.html",
        "titulo": "Deadpool (EUR)",
        "thumb": ""
    },
    {
        "link": "http://www.ps4iso.net/star-wars-battlefront-eur.html",
        "titulo": "Star Wars Battlefront (EUR)",
        "thumb": ""
    },
    {
        "link": "http://www.ps4iso.net/fallout-4-usa.html",
        "titulo": "Fallout 4 (USA)",
        "thumb": ""
    },
    {
        "link": "http://www.ps4iso.net/zen-pinball-2-eur.html",
        "titulo": "ZEN Pinball 2 (EUR)",
        "thumb": ""
    },
    {
        "link": "http://www.ps4iso.net/world-of-final-fantasy-eur.html",
        "titulo": "World of Final Fantasy (EUR)",
        "thumb": ""
    },
    {
        "link": "http://www.ps4iso.net/driveclub-vr-eur.html",
        "titulo": "Driveclub VR (EUR)",
        "thumb": ""
    },
    {
        "link": "http://www.ps4iso.net/dynasty-warriors-9-eur.html",
        "titulo": "Dynasty Warriors 9 (EUR)",
        "thumb": ""
    },
    {
        "link": "http://www.ps4iso.net/ni-no-kuni-ii-revenant-kingdom-eur.html",
        "titulo": "Ni no Kuni II: Revenant Kingdom (EUR)",
        "thumb": ""
    },
    {
        "link": "http://www.ps4iso.net/call-of-duty-advanced-warfare-eur.html",
        "titulo": "Call of Duty: Advanced Warfare (EUR)",
        "thumb": ""
    },
    {
        "link": "http://www.ps4iso.net/titanfall-2-eur.html",
        "titulo": "Titanfall 2 (EUR)",
        "thumb": ""
    },
    {
        "link": "http://www.ps4iso.net/brothers-a-tale-of-two-sons-eur.html",
        "titulo": "Brothers: A Tale of Two Sons (EUR)",
        "thumb": ""
    },
    {
        "link": "http://www.ps4iso.net/lords-of-the-fallen-eur.html",
        "titulo": "Lords of the Fallen + DLC (EUR)",
        "thumb": ""
    },
    {
        "link": "http://www.ps4iso.net/rayman-legends-eur.html",
        "titulo": "Rayman Legends (EUR)",
        "thumb": ""
    },
    {
        "link": "http://www.ps4iso.net/deus-ex-mankind-divided-eur.html",
        "titulo": "Deus Ex: Mankind Divided + All DLC (EUR)",
        "thumb": ""
    },
    {
        "link": "http://www.ps4iso.net/metro-redux-eur.html",
        "titulo": "Metro Redux (EUR)",
        "thumb": ""
    },
    {
        "link": "http://www.ps4iso.net/uncharted-2-among-thieves-remastered-eur.html",
        "titulo": "Uncharted 2: Among Thieves Remastered (EUR)",
        "thumb": ""
    },
    {
        "link": "http://www.ps4iso.net/yooka-laylee-eur.html",
        "titulo": "Yooka-Laylee (EUR)",
        "thumb": ""
    },
    {
        "link": "http://www.ps4iso.net/fifa-street-eur.html",
        "titulo": "FIFA Street (EUR)",
        "thumb": ""
    },
    {
        "link": "http://www.ps4iso.net/trackmania-turbo-eur.html",
        "titulo": "Trackmania Turbo (EUR)",
        "thumb": ""
    },
    {
        "link": "http://www.ps4iso.net/naruto-shippuden-ultimate-ninja-storm-trilogy-eur.html",
        "titulo": "Naruto Shippuden: Ultimate Ninja Storm Trilogy (EUR)",
        "thumb": ""
    },
    {
        "link": "http://www.ps4iso.net/just-cause-3-eur.html",
        "titulo": "Just Cause 3 (EUR)",
        "thumb": ""
    },
    {
        "link": "http://www.ps4iso.net/maldita-castilla-ex-cursed-castilla-eur.html",
        "titulo": "Maldita Castilla EX: Cursed Castilla (EUR)",
        "thumb": ""
    },
    {
        "link": "http://www.ps4iso.net/capcom-classics-collection-volume-2-usa.html",
        "titulo": "Capcom Classics Collection Volume 2 (USA)",
        "thumb": ""
    },
    {
        "link": "http://www.ps4iso.net/mass-effect-andromeda-eur.html",
        "titulo": "Mass Effect: Andromeda (EUR)",
        "thumb": ""
    },
    {
        "link": "http://www.ps4iso.net/psycho-break-jpn.html",
        "titulo": "Psycho Break (JPN)",
        "thumb": ""
    },
    {
        "link": "http://www.ps4iso.net/lego-marvel-super-heroes-2-eur.html",
        "titulo": "Lego Marvel Super Heroes 2 (EUR)",
        "thumb": ""
    },
    {
        "link": "http://www.ps4iso.net/gran-turismo-4-usa.html",
        "titulo": "Gran Turismo 4 (USA)",
        "thumb": ""
    },
    {
        "link": "http://www.ps4iso.net/final-fantasy-xv-jpn.html",
        "titulo": "Final Fantasy XV (JPN)",
        "thumb": ""
    },
    {
        "link": "http://www.ps4iso.net/kingdom-hearts-hd-i-5-ii-5-remix-jpn.html",
        "titulo": "Kingdom Hearts HD I.5 + II.5 Remix (JPN)",
        "thumb": ""
    },
    {
        "link": "http://www.ps4iso.net/angry-birds-star-wars-eur.html",
        "titulo": "Angry Birds Star Wars (EUR)",
        "thumb": ""
    },
    {
        "link": "http://www.ps4iso.net/call-of-duty-3-special-edition-usa.html",
        "titulo": "Call of Duty 3 (Special Edition) (USA)",
        "thumb": ""
    },
    {
        "link": "http://www.ps4iso.net/burnout-3-takedown-usa.html",
        "titulo": "Burnout 3: Takedown (USA)",
        "thumb": ""
    },
    {
        "link": "http://www.ps4iso.net/summer-lesson-asia.html",
        "titulo": "Summer Lesson (ASIA)",
        "thumb": ""
    }
]